1523078795383779,-3,17,-3,4,5,15,4,14
1523078795383779,-22,-5,10,7,4,7,6,-5
1523078795384778,19,-1,-1,3,-4,-21,-1,-21
1523078795384778,16,24,-13,-3,11,101,37,30
1523078795384778,-52,-28,-35,-23,-38,-100,-34,-88
1523078795384778,34,-40,33,19,1,36,-1,54
1523078795395839,-23,10,-2,1,6,26,14,-3
1523078795395839,-26,-1,-3,0,4,-15,-14,14
1523078795413834,6,-3,4,0,9,5,4,-12
1523078795413834,-14,31,-10,-12,8,45,14,26
1523078795415803,3,-36,19,2,10,23,12,35
1523078795415803,18,-9,-18,4,-15,-77,-49,-45
1523078795417805,2,27,29,5,-1,17,14,26
1523078795417805,-7,-20,1,-5,-11,-41,-14,-31
1523078795418802,7,13,-9,-5,-22,-21,-10,37
1523078795418802,-18,20,-3,-6,25,58,30,28
1523078795440821,30,-24,-12,10,-2,-17,-4,12
1523078795440821,2,-13,2,0,7,49,8,16
1523078795457833,-16,-16,7,-2,-18,-49,-19,8
1523078795457833,26,4,-4,8,9,24,18,-18
1523078795460863,-4,0,-4,-6,5,-15,-20,-51
1523078795460863,21,41,-15,-23,-18,-56,-22,30
1523078795488852,4,-54,7,7,6,12,14,-28
1523078795488852,-51,1,19,-1,-14,-7,-4,4
1523078795489858,27,6,14,10,13,27,3,1
1523078795489858,25,30,-1,2,10,42,28,35
1523078795494909,-31,-11,-30,4,1,5,-11,9
1523078795494909,4,-42,-14,-14,-19,-64,-35,26
1523078795495892,-12,-46,-18,-10,-8,-6,2,3
1523078795495892,-1,3,-7,6,15,48,1,39
1523078795497861,32,46,33,4,11,23,15,-8
1523078795497861,-37,3,20,9,-8,-10,4,52
1523078795508866,-4,3,-19,-10,-14,-27,-27,-52
1523078795508866,-1,-36,5,8,0,13,12,48
1523078795510867,-11,11,-17,-5,3,-47,-14,-12
1523078795510867,5,6,-17,-21,-10,-16,-23,5
1523078795532885,-6,5,13,2,-4,-3,-7,17
1523078795532885,-12,-32,-9,5,3,8,15,-42
1523078795535919,23,85,8,-5,23,32,19,67
1523078795535919,-20,-52,5,15,-6,-18,-20,-91
1523078795551951,-11,1,-15,-10,-25,-50,-21,39
1523078795551951,-6,-11,6,4,8,31,12,-24
1523078795607941,-26,-57,32,19,3,-23,-19,-26
1523078795607941,0,2,-7,11,-6,-24,2,19
1523078795608937,13,-22,43,10,1,6,9,34
1523078795608937,4,-15,-36,-3,17,87,43,29
1523078795609940,2,43,2,-17,-18,-70,-25,-45
1523078795609940,-39,-24,-11,-9,-2,11,-9,-53
1523078795612995,-23,-15,1,2,-5,-41,-4,35
1523078795612995,4,2,3,-5,-7,4,-14,-23
1523078795619945,14,3,-4,-1,1,20,7,-49
1523078795619945,-5,10,7,-3,4,-10,-8,23
1523078795629005,2,-45,-42,-1,-2,-2,-5,-30
1523078795629005,-18,2,80,34,-7,-76,-33,37
1523078795629957,21,24,-9,-5,9,44,26,65
1523078795629957,-12,-3,25,19,10,-93,-16,22
1523078795650972,69,25,-3,-12,-27,73,-19,50
1523078795650972,-2,-40,-43,-18,-2,17,7,14
1523078795674038,-12,-22,11,17,8,21,11,1
1523078795674038,14,15,17,1,9,49,24,26
1523078795674038,5,14,-12,-1,19,9,28,39
1523078795674038,26,12,4,-7,-19,-49,-24,-49
1523078795727074,-38,17,-13,-6,-6,19,-24,-15
1523078795727074,9,19,4,1,-2,-63,-43,-62
1523078795728029,-58,-61,9,6,10,15,0,-39
1523078795728029,8,-1,-21,-3,2,-8,24,-9
1523078795730025,-4,41,-7,-11,-2,4,20,42
1523078795730025,-15,-41,-15,-14,-26,-44,-38,-61
1523078795733078,-11,-2,-13,16,-4,-25,1,14
1523078795733078,15,-2,45,10,9,6,-3,47
1523078795742048,18,7,27,10,5,20,12,19
1523078795742048,38,2,-17,-5,-21,-35,-29,-26
1523078795743067,-47,1,12,5,31,44,31,73
1523078795743067,-19,25,2,-1,-6,-14,-23,-67
1523078795755092,0,-17,-7,-6,8,45,25,32
1523078795755092,6,4,-20,-12,-28,-96,-49,-15
1523078795763100,7,-21,18,9,2,4,6,0
1523078795763100,9,14,-12,-4,17,59,28,-3
1523078795778110,6,1,26,-4,-19,-36,-31,-7
1523078795778110,-22,-46,-18,4,8,64,40,-26
1523078795779094,17,17,0,-12,-22,-69,-37,85
1523078795779094,-7,-2,4,6,19,75,36,-27
1523078795800127,-6,-21,-3,0,-18,-36,-28,8
1523078795800127,10,27,-9,10,19,8,6,-21
1523078795801074,-4,-1,12,14,-4,0,10,-15
1523078795801074,12,0,-9,-13,-6,-4,-7,-41
1523078795815137,12,-7,-10,-1,9,22,4,-19
1523078795815137,-9,18,13,3,11,29,13,47
1523078795816086,24,-20,-15,1,13,89,56,73
1523078795816086,-17,29,-7,-4,-29,-77,-82,-4
1523078795838155,4,-20,-10,-6,-13,-19,-23,-17
1523078795838155,86,43,25,-2,3,26,11,-31
1523078795839139,-12,-51,-28,-7,11,-11,-3,11
1523078795839139,-10,6,-6,1,9,67,53,127
1523078795860170,-9,10,19,0,-6,-4,-9,-48
1523078795860170,-13,-15,-16,2,-2,-38,-11,38
1523078795861120,6,-29,-29,-7,-12,-16,-15,-24
1523078795861120,7,28,22,19,13,14,19,-3
1523078795884133,6,-49,49,23,18,27,22,61
1523078795884133,-6,-38,-26,-7,-7,-12,-20,-57
1523078795884133,-15,14,9,-5,-6,-14,-14,-68
1523078795884133,15,1,-27,-15,2,-41,-14,52
1523078795906203,-19,33,-3,3,-5,31,18,55
1523078795906203,-11,4,3,4,-8,-63,-15,-53
1523078795907150,-5,16,-7,-8,-11,-49,-24,31
1523078795907150,77,-9,-5,-7,-9,67,26,13
1523078795920213,8,-2,-16,-12,17,-50,-20,-66
1523078795920213,-36,0,15,3,1,41,8,55
1523078795951234,3,21,-6,-5,-9,-17,-2,-36
1523078795951234,-4,-1,11,-1,12,35,37,43
1523078795960240,4,30,-1,-14,-18,-23,-15,-48
1523078795960240,0,-59,-45,13,3,-6,-12,45
1523078795961188,-9,22,27,2,10,4,6,1
1523078795961188,-30,11,-13,1,11,70,29,-2
1523078795962188,2,-50,-20,6,-22,-91,-74,-28
1523078795962188,-58,35,28,5,0,-2,1,-82
1523078795973196,29,20,15,-2,-7,-4,3,26
1523078795973196,-7,5,-9,-5,21,82,47,53
1523078796005272,26,-28,-36,-20,-19,-65,-51,-103
1523078796005272,-22,20,15,-2,0,64,14,54
1523078796006245,-49,0,-7,6,-4,2,-16,-62
1523078796006245,39,12,14,-3,-6,-36,-23,-24
1523078796007220,40,13,-2,9,34,104,68,90
1523078796007220,-15,-7,13,-6,-20,-37,-12,-17
1523078796018231,3,3,0,-8,-7,-24,-9,-11
1523078796018231,-21,27,13,-3,4,-3,-10,-11
1523078796027288,-28,-96,-38,-2,4,24,18,-22
1523078796027288,-3,-6,-35,-14,-5,-21,-10,-29
1523078796028252,14,71,35,13,14,42,5,23
1523078796028252,6,-62,-5,17,-11,-45,-4,23
1523078796040297,-9,31,5,-6,-4,34,22,23
1523078796040297,-4,28,-8,-19,-8,-18,-10,-34
1523078796041245,8,-28,-30,-9,-3,-6,0,-31
1523078796041245,-62,-22,9,5,-5,-21,-23,-6
1523078796055308,-6,16,4,-4,-2,0,10,3
1523078796055308,50,-11,0,-2,3,7,13,82
1523078796056256,-64,5,1,-12,-7,-76,-41,-11
1523078796056256,26,0,3,2,-4,-7,-12,-70
1523078796078324,-26,7,1,2,19,41,5,-27
1523078796078324,14,29,-2,-9,14,56,38,30
1523078796079272,3,-33,-32,-16,-31,-82,-34,-11
1523078796079272,-9,-8,24,4,-4,12,0,25
1523078796100340,-35,3,-3,4,-11,15,17,30
1523078796100340,49,20,32,15,12,-2,7,41
1523078796101291,16,-6,-8,3,15,44,15,-4
1523078796101291,-11,-7,-23,-9,-6,3,-6,-6
1523078796115350,37,48,21,-4,-5,-6,-8,-43
1523078796115350,-38,-6,-15,-7,-4,-4,9,43
1523078796116298,3,-36,-10,1,6,32,17,73
1523078796116298,39,17,53,12,-7,-53,-13,-96
1523078796138332,-10,8,-2,-1,-3,8,-18,-36
1523078796138332,-53,-8,3,0,0,21,-9,-22
1523078796138332,-10,8,-4,0,0,-2,3,8
1523078796138332,21,16,-7,-7,12,-26,-6,45
1523078796162349,35,7,4,8,12,60,34,19
1523078796162349,-10,-11,-6,-9,-14,-50,-39,-28
1523078796162349,21,6,10,3,-14,57,5,17
1523078796162349,-33,2,-1,2,-1,12,-7,-38
1523078796185347,-12,-22,-20,1,3,-26,-4,23
1523078796185347,31,14,21,2,6,17,19,22
1523078796186347,-5,55,-12,-6,7,69,34,40
1523078796186347,-22,-45,-5,16,-4,-37,-16,-4
1523078796206362,-44,-35,-29,-5,-10,-10,-1,-12
1523078796206362,-7,-19,31,10,4,6,-4,-1
1523078796207362,27,-3,-24,-3,12,29,8,-95
1523078796207362,20,16,4,-10,-11,-50,-18,20
1523078796228377,-8,16,-14,-5,-12,-59,-26,-41
1523078796228377,-25,4,7,1,1,15,10,4
1523078796229378,-14,-16,-2,-5,2,-19,-4,10
1523078796229378,67,14,-27,-10,4,-3,12,42
1523078796234382,7,17,39,9,0,9,2,47
1523078796234382,3,-9,-12,-12,-20,-52,-51,-41
1523078796250393,7,-1,18,11,14,-17,7,-19
1523078796250393,-37,-3,-10,-8,-10,52,11,7
1523078796272408,38,13,-13,-19,4,-3,21,83
1523078796272408,11,-40,3,29,-2,-14,1,21
1523078796295425,-9,-4,16,-3,-18,-62,-50,-46
1523078796295425,-22,0,8,-4,3,-11,-8,-42
1523078796305435,4,32,-5,-12,2,29,5,-7
1523078796305435,3,-35,-35,-6,0,65,30,17
1523078796306450,-1,4,27,6,1,-76,-33,-28
1523078796306450,-14,-5,-19,3,5,79,36,20
1523078796319445,26,1,21,-2,-11,-105,-49,16
1523078796319445,-29,3,-8,-6,1,46,15,-19
1523078796320445,33,-15,-11,0,2,40,14,16
1523078796320445,-21,7,-16,-19,-1,-15,-4,-9
1523078796322444,-24,-38,25,14,11,-7,18,10
1523078796322444,-14,36,0,3,-22,-5,-20,-32
1523078796325486,9,-31,-4,5,-4,1,6,11
1523078796325486,-53,23,-8,-9,2,6,-1,-11
1523078796340497,26,-10,3,7,7,10,-9,35
1523078796340497,-9,50,11,-13,19,28,38,43
1523078796341474,-5,-7,18,-1,-9,-8,-14,-8
1523078796341474,-13,-14,-3,13,-12,-24,-10,7
1523078796354521,-17,6,6,-1,-1,26,-11,-39
1523078796354521,35,-1,-2,1,11,20,19,9
1523078796362526,-14,37,2,-5,13,61,46,84
1523078796362526,-21,-10,-4,-4,-1,-47,-36,-86
1523078796378484,-21,-38,-37,-14,-33,-36,-44,-103
1523078796378484,47,10,16,-5,11,32,14,50
1523078796378484,10,34,7,-5,16,21,28,13
1523078796378484,0,-35,-4,23,-16,-24,-40,-38
1523078796416564,38,-1,-23,6,2,15,17,13
1523078796416564,-6,-57,-13,4,4,-30,-12,-22
1523078796417530,-19,-27,-34,-14,-9,4,-8,-13
1523078796417530,29,-13,9,-2,17,45,44,47
1523078796419513,-5,48,33,4,-4,-15,-1,-8
1523078796419513,-2,-8,-10,8,-1,-3,-13,22
1523078796422570,37,0,-1,-2,-1,-17,-13,46
1523078796422570,-41,-5,-21,-15,8,67,28,29
1523078796438530,-14,-9,-10,-9,-9,-35,-13,-88
1523078796438530,11,9,9,0,-7,-30,-21,2
1523078796438530,-1,-4,4,2,-5,-39,-5,-52
1523078796438530,-3,6,-5,-10,-12,8,-8,-62
1523078796461544,0,40,3,-1,16,19,13,91
1523078796461544,-26,-65,-19,14,-3,-18,-5,-84
1523078796484613,-1,-20,5,8,11,26,14,30
1523078796484613,33,37,23,-11,-8,-8,4,74
1523078796486562,-71,-60,-6,7,-10,-35,-35,-82
1523078796486562,-2,47,3,-18,-3,-1,-2,6
1523078796487596,-5,-14,10,13,-1,0,-10,9
1523078796487596,19,-17,4,3,11,4,18,23
1523078796507576,-27,28,9,-12,-8,0,0,6
1523078796507576,47,41,-15,-9,7,12,14,38
1523078796508593,-31,-52,-22,-6,-16,-59,-11,-37
1523078796508593,14,21,-4,-1,9,2,-11,44
1523078796528617,11,2,10,3,4,29,7,-20
1523078796528617,12,-13,-6,0,-35,-1,-18,2
1523078796529593,-63,47,-4,-11,18,51,25,18
1523078796529593,-3,-34,0,-4,-15,-76,-14,-21
1523078796558665,12,-7,-15,7,3,14,8,11
1523078796558665,-6,19,30,3,12,18,22,60
1523078796559619,3,24,-12,-6,-2,-1,-4,-30
1523078796559619,29,-28,40,9,8,12,8,59
1523078796575625,-17,-71,-66,5,-3,6,-2,26
1523078796575625,-16,-19,1,5,-2,-15,-15,-65
1523078796575625,28,17,5,-8,-12,-4,-11,10
1523078796575625,-24,19,-7,1,9,16,5,-24
1523078796580681,59,35,35,2,5,8,13,-11
1523078796580681,-27,4,-3,-4,1,9,2,1
1523078796581683,5,-51,-28,-6,5,-25,-5,-15
1523078796581683,8,29,-8,-4,-7,14,-1,28
1523078796603696,-27,9,13,2,-9,-4,3,-11
1523078796603696,4,2,-6,0,17,-11,5,2
1523078796604649,16,21,20,3,-4,16,4,29
1523078796604649,-5,22,-2,-8,-13,-61,-21,-8
1523078796626661,-41,-42,-31,-6,-10,52,-4,-67
1523078796626661,57,-5,-23,-12,-6,-26,-37,-68
1523078796626661,33,7,23,4,-5,-14,-3,16
1523078796626661,-42,5,-28,14,22,47,26,31
1523078796648730,-19,41,12,-7,8,25,29,7
1523078796648730,-13,-55,-1,12,-9,-54,-32,11
1523078796649690,-17,-4,-5,-8,-14,0,-12,-25
1523078796649690,70,-12,-8,2,-6,-8,-9,9
1523078796663740,25,46,23,-7,16,28,14,29
1523078796663740,-58,-28,-25,-6,-4,-2,13,15
1523078796664722,-5,9,47,16,1,-20,-8,-16
1523078796664722,-20,-14,-4,-3,2,27,9,-26
1523078796685703,31,11,-1,4,18,17,12,38
1523078796685703,16,29,28,-6,-16,-41,-16,-9
1523078796692726,-14,-16,-18,-5,-15,-18,-21,-33
1523078796692726,-17,8,5,-3,1,13,1,-35
1523078796715724,-2,-18,1,6,-6,-32,-33,-6
1523078796715724,-10,24,-13,-11,9,-12,5,27
1523078796716724,-11,24,17,-2,-4,5,5,3
1523078796716724,-19,-52,-40,1,-8,-4,-7,37
1523078796722731,-15,-22,7,13,11,6,-4,-69
1523078796722731,43,40,37,-4,11,43,25,58
1523078796737758,-48,-62,-47,5,3,13,14,10
1523078796737758,32,26,32,5,-10,-52,-49,-79
1523078796745745,-5,12,-2,-5,-3,-3,9,46
1523078796745745,-20,10,-9,-6,1,31,23,-1
1523078796746746,32,39,0,3,16,38,44,50
1523078796746746,-4,-8,7,-10,-29,-65,-47,12
1523078796784776,1,-23,-28,-3,-5,-10,-9,-9
1523078796784776,-18,19,9,0,11,6,1,-15
1523078796785774,-24,-7,-1,-2,6,83,29,33
1523078796785774,-12,-6,-11,-5,-2,-4,4,33
1523078796787775,24,33,16,-8,-27,-101,-73,-88
1523078796787775,6,-50,-14,8,15,33,15,42
1523078796790830,-27,1,26,9,-5,-8,-12,-19
1523078796790830,33,5,-39,-24,5,54,22,10
1523078796805841,-7,-8,60,22,2,17,9,62
1523078796805841,-15,-32,4,10,-5,-9,-7,-85
1523078796806790,24,-15,6,0,-4,-30,-21,-9
1523078796806790,-52,47,-10,6,6,29,19,6
1523078796828858,18,-25,-16,-12,4,8,26,58
1523078796828858,-8,-6,-8,-5,-1,13,5,11
1523078796829805,12,7,3,2,-3,-2,-12,-12
1523078796829805,8,10,20,-2,-6,-13,6,-3
1523078796844819,6,-7,-22,-4,10,29,24,54
1523078796844819,-12,0,4,0,-8,-1,-18,-56
1523078796844819,7,7,-7,-5,-4,-29,-7,9
1523078796844819,-12,1,3,1,-8,-33,-27,-70
1523078796873889,9,-4,-4,-4,-1,8,14,36
1523078796873889,-37,16,2,0,0,22,10,-22
1523078796874894,-2,0,-17,-9,1,-7,10,-37
1523078796874894,8,-22,8,5,7,32,8,54
1523078796879896,7,38,-2,-8,-17,-70,-27,-39
1523078796879896,-52,-15,-2,-3,-10,7,3,33
1523078796887902,-8,-24,-12,1,-2,-69,-48,-4
1523078796887902,28,4,12,16,36,85,49,95
1523078796903912,-1,52,-9,-24,-17,-35,-33,-101
1523078796903912,-1,-72,-30,2,-15,-4,-7,20
1523078796904912,-18,26,13,6,7,27,11,32
1523078796904912,23,-5,3,3,3,22,30,-11
1523078796925927,-41,16,-9,-6,4,36,19,67
1523078796925927,47,30,8,-13,-9,-79,-20,18
1523078796926874,-6,33,3,11,-3,32,7,-82
1523078796926874,-34,-2,7,-2,-4,-2,-8,-33
1523078796948943,-4,-11,13,16,19,38,20,-26
1523078796948943,70,14,-6,0,-19,35,6,8
1523078796949898,-10,-19,-10,-18,1,-45,-15,45
1523078796949898,35,25,3,-8,-3,17,-3,-49
1523078796970959,-9,-64,-21,-1,-20,-82,-36,-20
1523078796970959,29,34,24,6,18,53,39,18
1523078796971910,-29,15,-20,-10,-16,-50,-51,-44
1523078796971910,52,3,-19,-12,-1,10,3,16
1523078796984916,-20,-19,50,12,6,20,2,5
1523078796984916,1,26,34,28,17,8,17,33
1523078796992971,-26,-49,-22,6,17,74,51,53
1523078796992971,1,-10,4,-16,-35,-108,-59,-76
1523078796999979,23,-55,-60,2,-14,-29,-26,-45
1523078796999979,-78,-2,1,-23,-7,-11,-7,-4
1523078797015945,35,3,50,28,11,30,22,-2
1523078797015945,-50,-27,-14,-9,9,55,29,23
1523078797021995,19,7,-28,-7,-3,-44,-17,33
1523078797021995,12,18,-6,-10,-12,-40,-41,-47
1523078797038957,10,-8,-12,-14,-9,-5,6,31
1523078797038957,-5,1,11,14,12,16,26,2
1523078797074991,-3,10,0,-2,13,52,39,41
1523078797074991,-11,-10,-9,-3,-13,-81,-44,4
1523078797092047,20,5,0,-12,-8,9,-15,-23
1523078797092047,3,65,6,4,16,-8,27,43
1523078797092995,-36,-78,19,16,-9,20,-8,-91
1523078797092995,27,-4,-13,1,-1,6,12,24
1523078797095002,4,-7,-2,-13,-13,-19,-6,19
1523078797095002,-15,34,0,-5,5,19,-4,35
1523078797098012,11,2,-9,13,20,50,32,6
1523078797098012,-10,-25,-2,-8,-39,-84,-73,-85
1523078797114043,-6,42,12,4,33,86,48,71
1523078797114043,2,4,-2,1,-9,16,-2,4
1523078797115011,15,40,16,-9,-12,-18,-4,-22
1523078797115011,2,-79,-27,-5,-8,-26,-11,4
1523078797129072,-4,30,4,-7,-6,-23,-8,33
1523078797129072,23,33,26,0,18,42,31,9
1523078797131032,3,-42,-36,16,12,24,13,23
1523078797131032,8,32,26,18,-1,-15,3,-85
1523078797142080,10,-35,-13,3,-22,-21,-14,38
1523078797142080,-5,9,-6,-21,0,-28,-10,12
1523078797151034,6,-7,-25,-18,-2,8,-3,-24
1523078797151034,-22,42,27,5,17,33,15,11
1523078797166097,12,-23,-30,-18,-14,-33,-1,-33
1523078797166097,25,3,6,7,0,-5,-2,59
1523078797168046,-8,23,3,-2,4,1,5,-46
1523078797168046,-14,-43,-19,-3,-16,-46,-50,-55
1523078797189061,11,47,29,-9,5,7,-1,14
1523078797189061,-12,-21,-21,6,18,46,51,-4
1523078797190061,-32,-31,2,-6,-21,-48,-31,24
1523078797190061,31,43,6,3,-2,7,8,5
1523078797202127,-43,-60,2,16,-4,7,0,3
1523078797202127,-7,19,17,18,19,26,25,17
1523078797219082,5,-34,-42,-8,-4,4,12,-7
1523078797219082,12,20,-3,-17,-21,-48,-26,26
1523078797226140,-25,-7,-2,-10,-3,-25,-2,-2
1523078797226140,13,-5,-15,-6,14,11,26,2
1523078797228091,-14,-9,-6,-13,-7,6,2,-1
1523078797228091,-12,-29,-15,16,-11,13,-19,-41
1523078797249103,45,35,20,5,14,13,13,27
1523078797249103,-5,-15,-12,-3,-3,8,-15,-15
1523078797250106,6,32,-1,-18,-6,17,6,-14
1523078797250106,-6,-28,13,0,2,0,29,68
1523078797272173,-4,38,15,-3,-1,-10,-18,-41
1523078797272173,-22,-4,7,12,1,-3,0,27
1523078797273122,27,38,26,7,2,13,0,17
1523078797273122,8,-27,-27,-16,-9,-12,-6,74
1523078797286182,-32,-65,-37,10,4,7,6,-15
1523078797286182,-7,-33,7,-4,-9,-9,-11,-32
1523078797288134,-17,1,26,5,6,6,-12,3
1523078797288134,17,16,1,19,11,11,18,-2
1523078797316205,-2,33,-17,-4,4,23,6,56
1523078797316205,0,1,-6,-16,-12,0,-17,-47
1523078797318170,-1,60,-13,-16,-14,-68,-5,-24
1523078797318170,5,-59,-21,17,3,30,5,-34
1523078797339221,13,43,4,-12,-6,-31,-5,14
1523078797339221,-25,19,-1,4,18,73,25,11
1523078797341172,44,9,11,9,-12,-94,-40,-8
1523078797341172,-6,33,6,-11,-5,4,2,39
1523078797353231,-4,6,4,-3,7,22,-1,-69
1523078797353231,12,-32,-7,0,-5,-8,11,60
1523078797377194,-21,10,-2,-1,14,51,4,-59
1523078797377194,-7,-18,11,-10,-9,-33,-14,21
1523078797390259,4,-22,24,12,-2,-24,-23,6
1523078797390259,-8,44,22,7,14,29,32,37
1523078797408216,11,16,25,25,1,-9,-24,-2
1523078797408216,1,5,-20,-2,-4,7,5,-18
1523078797409220,-19,-7,-45,-26,-16,-10,3,2
1523078797409220,-1,-17,-9,2,-2,-21,-17,-19
1523078797413238,-5,1,15,2,8,18,16,23
1523078797413238,10,1,15,16,12,21,8,-5
1523078797414220,6,31,29,-2,-6,-7,-5,40
1523078797414220,-7,3,-13,-7,-21,-101,-55,-75
1523078797428284,-37,7,-3,-8,-14,45,-3,-85
1523078797428284,-1,0,2,2,6,5,8,-4
1523078797430232,-26,-21,2,3,-1,16,8,28
1523078797430232,-46,-3,-9,-11,-5,-18,-6,-60
1523078797442293,52,15,28,9,14,-31,-19,23
1523078797442293,-3,0,-14,-3,-8,-3,-7,-7
1523078797451247,-5,-2,-12,-5,9,12,9,2
1523078797451247,-6,13,22,-1,-9,-4,-2,2
1523078797466311,-1,-22,-5,-3,-1,27,23,35
1523078797466311,-2,-25,-25,-2,-1,26,0,-43
1523078797467293,19,33,21,7,1,-29,-9,55
1523078797467293,-39,-93,-12,6,-9,-25,-19,-58
1523078797488326,56,19,6,-7,-6,5,-7,14
1523078797488326,3,16,8,-3,5,51,29,52
1523078797490277,-26,-28,-22,-4,7,-7,-2,1
1523078797490277,22,27,-4,-8,-18,3,0,-7
1523078797502337,-22,-13,-9,-3,2,6,9,-15
1523078797502337,17,7,0,-3,-11,-36,-36,-3
1523078797511289,20,-13,-1,0,-2,21,17,0
1523078797511289,32,11,-2,-7,-7,-7,-16,9
1523078797526353,-18,2,0,6,21,12,32,40
1523078797526353,7,66,21,-12,-34,-36,-21,-42
1523078797528302,-13,-98,-14,12,-2,-43,-29,-54
1523078797528302,6,10,-2,0,4,31,12,36
1523078797548369,-6,19,7,-6,2,-6,3,-85
1523078797548369,3,-29,-29,-15,7,40,14,56
1523078797550334,32,43,26,24,-3,29,28,32
1523078797550334,6,-3,-3,2,-4,-50,-18,-15
1523078797562380,-10,-12,-11,-3,-8,-2,-13,17
1523078797562380,-21,30,8,-8,3,3,7,-5
1523078797571333,-14,-9,-2,-6,2,40,11,6
1523078797571333,-14,-46,-33,-3,4,-2,0,10
1523078797600406,20,15,-1,-2,-14,-10,-5,-13
1523078797600406,-44,-11,10,2,-3,3,-11,-19
1523078797618365,42,34,16,-3,-2,-5,-3,26
1523078797618365,-22,-20,-5,0,6,-16,-21,-61
1523078797619420,-34,17,1,0,-3,8,7,-13
1523078797619420,-23,-15,4,-3,-4,-19,-15,-42
1523078797638434,-2,-56,-23,-12,11,-4,18,44
1523078797638434,22,40,25,2,-14,24,-7,-40
1523078797639408,9,-9,-22,-9,-14,-62,-40,-9
1523078797639408,43,-2,-7,1,7,11,20,39
1523078797652444,9,-16,-12,4,1,13,-1,-33
1523078797652444,-47,45,27,6,14,24,21,35
1523078797670420,25,-5,13,-17,-6,6,11,0
1523078797670420,-6,-78,-18,23,-1,-23,-11,-32
1523078797671404,2,-13,-5,2,-2,-24,-14,9
1523078797671404,7,21,-2,-9,-1,-7,-18,-30
1523078797672407,13,3,0,-1,-2,-14,-1,12
1523078797672407,13,-13,-22,-11,4,24,8,-4
1523078797676424,-28,28,23,-3,-6,26,11,-13
1523078797676424,9,-6,-3,10,1,-35,-10,11
1523078797682411,-31,9,-9,-4,1,7,6,13
1523078797682411,69,21,12,-3,1,-31,-1,34
1523078797691420,-21,-19,-14,-2,0,5,-12,-19
1523078797691420,7,-27,8,3,7,26,24,26
1523078797706482,6,-12,-30,1,0,-1,-4,21
1523078797706482,-17,57,33,-7,-7,-21,-5,-13
1523078797707431,18,-22,9,1,-1,8,4,-27
1523078797707431,-26,-42,-57,-5,-3,0,-1,55
1523078797728498,-25,-31,29,13,7,46,15,-65
1523078797728498,-9,23,6,6,12,20,8,61
1523078797730449,-38,-2,-24,-24,-27,-86,-40,-66
1523078797730449,10,29,13,-10,-11,-2,-8,-48
1523078797742507,-26,-6,-13,7,1,0,3,29
1523078797742507,49,4,5,8,17,39,15,41
1523078797751460,7,73,27,-5,8,21,13,31
1523078797751460,-4,-81,-25,2,-5,1,9,46
1523078797765523,29,2,-12,-6,-3,-7,-3,-27
1523078797765523,-18,-11,3,0,-8,-4,-8,-47
1523078797772528,-7,25,25,7,0,0,-4,25
1523078797772528,5,19,15,-6,-4,-4,-1,-27
1523078797788540,6,25,1,8,5,14,2,21
1523078797788540,-23,-51,-15,3,5,38,24,42
1523078797790491,2,-5,-5,-3,-6,-12,0,2
1523078797790491,-16,2,4,-5,-16,-65,-62,-90
1523078797802550,45,-24,-6,-4,-7,22,16,88
1523078797802550,-4,4,-2,-1,3,-10,-8,-11
1523078797811506,10,-5,2,8,16,52,21,13
1523078797811506,13,19,11,4,9,19,18,4
1523078797825567,-29,19,8,-3,5,6,12,-18
1523078797825567,4,-53,-36,-7,-29,-73,-58,-66
1523078797849530,-28,11,2,3,-1,-3,5,20
1523078797849530,-20,8,8,-1,8,0,5,4
1523078797849530,22,45,21,-4,7,26,13,1
1523078797849530,-79,-36,-23,8,-1,18,14,3
1523078797854587,32,1,-5,-3,-1,-28,-21,5
1523078797854587,-11,-10,-7,4,2,2,-4,-17
1523078797871571,21,2,10,0,-4,-7,-3,8
1523078797871571,-1,13,11,-7,-1,20,21,17
1523078797872562,12,1,-10,-4,-5,-12,4,-4
1523078797872562,-46,11,-6,-2,-4,21,6,17
1523078797909626,15,-3,-2,0,-2,0,5,-16
1523078797909626,37,34,11,-9,-5,-61,-46,-39
1523078797911575,-15,-41,-32,8,-4,35,1,-50
1523078797911575,-9,24,28,-3,9,-2,3,49
1523078797912575,-16,11,4,5,-3,-17,-12,-12
1523078797912575,22,-8,10,11,13,23,18,3
1523078797925585,5,-39,-18,-9,8,3,9,37
1523078797925585,30,29,-3,6,-3,22,8,-20
1523078797939596,-70,-25,-8,-5,-34,-58,-39,-43
1523078797939596,14,30,12,-4,1,18,20,35
1523078797946599,-15,30,10,-5,2,-13,2,5
1523078797946599,-11,-30,-10,-9,-7,-42,-25,-76
1523078797946599,-18,-8,-8,-2,8,-25,-21,30
1523078797946599,3,16,0,6,14,42,36,47
1523078797959662,-38,-6,-4,-3,-14,-82,-47,-36
1523078797959662,48,8,-5,-4,8,13,12,13
1523078797969670,-42,-13,-2,3,7,39,8,25
1523078797969670,47,1,-3,-3,-21,-29,-11,-30
1523078797970617,-13,-4,4,8,14,41,21,42
1523078797970617,18,10,0,1,4,11,8,-6
1523078797982679,13,-9,3,-4,-15,-20,-7,-23
1523078797982679,-6,55,3,3,-9,10,5,46
1523078797991665,-73,-46,-18,-10,-3,-18,-8,22
1523078797991665,28,33,-22,-4,9,46,20,-38
1523078798005695,10,20,6,10,15,-25,-21,-1
1523078798005695,-51,-49,-18,-11,-7,4,-6,-28
1523078798012701,19,18,29,-2,-12,4,5,-21
1523078798012701,47,-8,-6,1,0,-1,-4,21
1523078798028711,-64,19,4,-1,7,6,15,11
1523078798028711,-22,-35,2,6,17,-2,6,0
1523078798030679,27,23,-17,-9,-19,-3,-31,-17
1523078798030679,-45,-34,10,-1,-7,-13,1,-4
1523078798051727,42,-2,-12,-7,10,24,4,-12
1523078798051727,37,5,2,-5,-11,-50,-21,0
1523078798053675,2,-2,-1,7,33,43,21,-2
1523078798053675,-6,10,7,-6,-55,-5,4,22
1523078798065737,32,-13,-4,-6,-11,-9,9,12
1523078798065737,-22,46,24,10,49,6,-14,22
1523078798072720,2,-6,-20,-3,-17,-1,3,-36
1523078798072720,8,-9,-8,-5,13,-4,-9,9
1523078798088753,-11,-2,-4,5,10,15,20,36
1523078798088753,14,-47,11,-4,-32,-73,-47,-38
1523078798090702,15,87,65,5,3,16,9,-21
1523078798090702,-89,88,37,4,20,5,12,39
1523078798110722,-9,-118,-96,-6,-12,17,-4,-43
1523078798110722,32,47,9,-2,10,17,24,32
1523078798126730,11,14,-1,1,27,-13,-11,-10
1523078798126730,39,11,10,-6,-24,9,15,0
1523078798127727,-18,35,31,-8,-28,-5,7,14
1523078798127727,-27,-30,-27,-2,-2,30,12,-5
1523078798150744,2,-10,-1,2,-7,-41,-34,-82
1523078798150744,16,-15,3,3,2,0,15,34
1523078798151778,28,8,5,5,-22,-16,-1,1
1523078798151778,3,-18,-12,-7,-14,8,-22,-3
1523078798154801,-20,-2,0,-11,8,37,33,74
1523078798154801,-17,-17,6,2,6,2,-4,-3
1523078798171812,9,43,-10,2,10,-18,-14,-34
1523078798171812,-43,-65,-66,7,4,10,17,9
1523078798173796,18,42,3,4,9,11,-3,-2
1523078798173796,7,-13,-12,7,0,-4,4,1
1523078798192827,-44,30,55,-2,7,9,10,17
1523078798192827,30,11,23,-9,-3,-15,-20,-9
1523078798217845,-15,-77,-62,0,-21,-28,-11,44
1523078798217845,-7,-22,-2,1,-2,-9,-19,-15
1523078798218796,13,-8,3,-4,9,17,6,-22
1523078798218796,-6,33,24,-3,-3,38,20,-1
1523078798222798,-8,42,22,0,-17,-6,-9,-26
1523078798222798,-5,-87,-47,-10,3,8,11,-3
1523078798230801,11,-48,3,13,23,17,-4,8
1523078798230801,-14,10,-25,-9,-12,-48,-36,-7
1523078798236859,15,-16,-1,-14,-36,-28,-14,18
1523078798236859,8,38,52,4,9,13,15,61
1523078798244865,-13,12,-38,0,-5,-8,-25,-61
1523078798244865,7,29,19,4,7,16,23,-2
1523078798260877,21,16,6,-3,7,-5,5,43
1523078798260877,-52,-102,-70,7,1,-2,-5,-48
1523078798268882,8,-23,17,-4,-1,-11,-15,-15
1523078798268882,-8,44,21,-4,-5,11,8,-16
1523078798269882,19,22,12,-8,-1,21,15,15
1523078798269882,36,49,6,-1,1,-2,-4,-13
1523078798290897,-69,-3,-1,3,5,1,-8,8
1523078798290897,-5,-41,-18,-5,-6,-32,-15,-8
1523078798292863,-1,-2,1,-1,-17,-2,6,-24
1523078798292863,15,23,5,-6,2,-18,-24,-5
1523078798304907,-5,-4,6,1,1,-16,-12,-14
1523078798304907,3,57,55,6,6,25,34,21
1523078798313860,1,-49,-73,-10,-7,-19,-18,24
1523078798313860,-5,-34,-18,7,0,-11,-17,-37
1523078798328925,36,35,41,4,1,1,18,9
1523078798328925,5,36,-5,-10,6,3,-6,20
1523078798329913,7,54,53,12,14,27,27,24
1523078798329913,-7,-36,-33,14,7,-8,2,-8
1523078798350940,15,9,-11,-15,-14,-15,-28,13
1523078798350940,3,0,-5,-6,-1,-4,11,-17
1523078798352889,-21,1,-7,-11,5,26,4,-86
1523078798352889,25,42,27,-9,-18,-58,-16,84
1523078798364950,0,-12,-12,7,-1,49,35,72
1523078798364950,36,-4,6,-3,-8,-23,-23,-24
1523078798373903,-23,4,-11,7,20,10,-5,-65
1523078798373903,-14,-50,-15,-10,-15,-20,-15,16
1523078798388914,23,25,-18,-17,-7,-10,-17,-54
1523078798388914,7,39,69,17,1,26,24,35
1523078798409982,-6,-1,-18,21,11,18,17,64
1523078798409982,-9,39,14,9,12,13,-5,-28
1523078798418989,51,-48,-26,-9,-12,-42,-22,41
1523078798418989,-20,-23,-28,-15,-7,15,13,6
1523078798420937,-7,36,37,-14,-12,-33,-22,18
1523078798420937,35,15,5,-5,4,11,11,-21
1523078798424993,-12,3,25,15,6,7,22,28
1523078798424993,-50,-46,-39,15,4,-21,-22,-33
1523078798440950,23,-18,-4,6,-1,4,-11,21
1523078798440950,6,30,-5,-13,-21,-17,-8,-22
1523078798449010,6,32,34,-19,-1,8,16,-18
1523078798449010,5,-67,-55,3,8,46,25,19
1523078798449957,-13,30,21,6,-2,-4,-1,-6
1523078798449957,22,22,26,-3,10,27,10,-4
1523078798471025,-24,19,-10,7,0,-31,-8,12
1523078798471025,-5,-24,7,1,-11,-28,-24,-68
1523078798472977,20,-37,-12,0,5,3,17,49
1523078798472977,-86,32,27,-13,-14,12,-9,-32
1523078798501047,-16,-18,-40,6,2,13,9,-8
1523078798501047,49,27,21,2,5,13,14,14
1523078798502998,-4,-38,-28,3,0,-7,7,11
1523078798502998,-16,21,19,0,5,19,-12,-40
1523078798516057,6,47,13,-12,-3,-5,-6,41
1523078798516057,-42,-31,-58,-12,-9,-17,-22,-25
1523078798518006,26,-9,21,11,4,32,27,5
1523078798518006,2,-7,15,4,4,-38,-7,-19
1523078798539045,25,10,-3,5,-1,37,0,-42
1523078798539045,1,-53,-31,1,-10,-60,-31,24
1523078798540023,-20,37,21,-11,-1,21,12,-42
1523078798540023,13,-30,-41,3,6,-1,18,55
1523078798545079,-23,-54,-10,-6,-6,-19,-22,0
1523078798545079,-15,45,35,2,8,31,18,-9
1523078798554031,-17,-10,-3,4,2,-6,4,9
1523078798554031,-3,1,1,1,-2,-13,-4,19
1523078798569071,13,1,-10,-8,-8,-7,10,29
1523078798569071,-8,70,27,0,5,35,22,25
1523078798570045,-28,-76,-46,1,-11,-46,-34,5
1523078798570045,8,-15,-32,-3,-2,22,10,-20
1523078798591110,15,16,16,10,5,-10,0,-52
1523078798591110,22,34,5,-4,-6,-46,-33,31
1523078798593063,-4,21,16,-13,-8,11,3,-4
1523078798593063,19,-37,-27,-3,7,25,18,13
1523078798605120,-22,-43,19,5,3,-4,-15,24
1523078798605120,38,45,10,-5,-2,38,16,2
1523078798614077,16,-65,-34,15,1,-22,-10,50
1523078798614077,6,24,-2,-6,3,18,1,-55
1523078798629084,13,13,-15,-9,-10,-2,8,-4
1523078798629084,-23,-12,23,4,6,-45,-32,-23
1523078798630085,19,38,12,-2,-2,17,16,44
1523078798630085,40,-4,-1,-6,-14,-5,-12,-2
1523078798651154,1,15,13,7,8,9,-1,3
1523078798651154,-13,-25,-11,-7,0,-7,8,-10
1523078798653102,14,41,-5,-9,2,44,6,-16
1523078798653102,-17,-21,7,5,11,6,16,59
1523078798681175,-40,78,41,11,-12,-58,-55,-59
1523078798681175,-6,-125,-82,-4,-9,-8,-3,15
1523078798683123,-32,34,26,-1,6,-9,-10,-39
1523078798683123,8,44,14,-11,-3,13,6,3
1523078798688179,-9,27,1,-3,7,11,8,-19
1523078798688179,-19,-5,1,5,-1,32,17,41
1523078798695185,-23,-5,-9,-5,0,-38,-27,-84
1523078798695185,4,2,6,-2,-15,-13,-3,25
1523078798711196,7,-20,-13,-2,-6,-10,1,99
1523078798711196,-9,9,7,-1,-6,20,10,-78
1523078798713155,-28,-27,-7,-7,3,5,-5,-28
1523078798713155,-5,3,2,6,7,5,8,53
1523078798725169,-8,-37,-16,-7,-1,-7,-9,-83
1523078798725169,-20,6,-1,-10,-16,9,-8,2
1523078798734159,40,6,1,-1,-4,-4,13,33
1523078798734159,-3,-4,4,5,2,-17,-33,-10
1523078798748222,7,16,-10,-1,7,32,30,63
1523078798748222,-1,2,27,7,7,1,-8,-60
1523078798771238,9,19,-31,-5,-3,13,13,20
1523078798771238,-48,0,32,8,-6,-44,-24,-56
1523078798772186,11,-74,-45,6,11,46,18,9
1523078798772186,2,6,2,-7,-9,-37,-21,-2
1523078798779193,25,5,16,-8,-20,-70,-35,9
1523078798779193,-22,-5,-11,-4,1,17,4,-19
1523078798785199,10,13,0,-6,3,1,-9,-24
1523078798785199,9,22,9,6,-5,-22,17,39
1523078798794217,2,-23,-5,-3,-3,45,11,-10
1523078798794217,7,27,-7,-3,3,4,-12,-58
1523078798808212,19,-64,-5,-1,4,-39,-17,-10
1523078798808212,0,25,4,1,-7,25,23,40
1523078798816218,3,-20,-8,5,9,-1,14,17
1523078798816218,-1,50,16,12,-1,-3,-3,33
1523078798831281,-24,-7,-12,-9,-7,-23,-39,-60
1523078798831281,42,1,42,-1,7,5,6,21
1523078798832265,-23,18,-10,14,4,30,2,-65
1523078798832265,-6,4,6,-3,0,-32,-4,42
1523078798845238,-49,11,2,-6,-9,-38,-8,-44
1523078798845238,-2,-32,-26,-1,1,19,-11,21
1523078798853297,-43,23,32,-3,-12,25,10,-16
1523078798853297,20,-13,-18,-5,-9,-58,-23,3
1523078798868309,8,-12,-10,-2,1,-6,-8,35
1523078798868309,-11,16,-3,-2,8,-4,1,-71
1523078798875259,-10,-10,2,0,9,47,36,104
1523078798875259,36,0,-14,1,-17,35,8,-8
1523078798891324,48,53,32,-8,-10,-4,-2,-22
1523078798891324,-40,-85,-55,6,-3,-20,-20,-7
1523078798892324,19,3,32,3,11,-26,-24,-60
1523078798892324,-3,-34,-14,3,11,30,32,16
1523078798905283,7,48,13,7,3,40,23,68
1523078798905283,33,24,-19,-5,0,-31,-9,-18
1523078798913340,-21,-11,-15,-9,-16,-12,-15,-29
1523078798913340,5,0,23,-2,2,-7,7,50
1523078798928351,-35,-3,9,1,3,44,30,-6
1523078798928351,-2,23,9,7,11,-21,8,71
1523078798935304,-2,-8,-12,-8,-15,-25,-8,-20
1523078798935304,-8,0,0,-2,-5,4,-14,19
1523078798951367,-8,-8,-13,1,7,14,-4,-18
1523078798951367,-31,9,4,-1,2,28,39,67
1523078798952352,40,-6,4,-3,-25,-25,-32,-36
1523078798952352,11,21,37,-1,9,-20,-1,65
1523078798973382,3,-56,-67,-2,-9,9,-10,-14
1523078798973382,3,41,50,-5,10,22,0,-24
1523078798975330,1,21,-20,2,7,-21,-14,-1
1523078798975330,-5,-13,-14,-1,-2,19,14,-13
1523078798988393,21,34,37,8,3,1,34,111
1523078798988393,-26,-13,-7,3,-1,-23,-18,-23
1523078798994398,-2,-41,-27,-8,-3,-7,-19,-57
1523078798994398,-8,7,7,-8,-6,-5,-9,-30
1523078799011356,1,-10,9,8,-2,2,6,-26
1523078799011356,9,13,-6,1,1,40,14,21
1523078799012356,-3,14,8,2,3,-33,2,88
1523078799012356,-6,-42,-27,-9,-1,-21,-16,-60
1523078799033425,8,-23,3,-1,1,16,-9,-60
1523078799033425,-6,2,-2,-7,-9,0,4,-9
1523078799035373,16,-11,0,-1,-15,6,-6,-3
1523078799035373,5,50,35,-6,-11,-11,-8,70
1523078799056441,32,32,-20,-8,5,10,27,-54
1523078799056441,1,-66,-30,14,5,-14,-21,13
1523078799058389,4,2,18,-4,12,-19,2,49
1523078799058389,1,8,9,-9,-2,19,14,50
1523078799071401,-26,-9,9,5,-6,-28,-35,-64
1523078799071401,11,56,-18,6,6,27,26,43
1523078799077457,1,-32,-6,-2,1,11,20,7
1523078799077457,-2,6,7,5,-6,-25,-25,-91
1523078799093468,7,-20,-19,-16,-4,2,15,63
1523078799093468,10,10,18,-8,0,20,-5,-36
1523078799095427,-8,7,8,12,11,17,0,48
1523078799095427,5,11,-13,-6,-4,17,17,-23
1523078799107477,-25,-26,4,0,-8,-45,-25,-38
1523078799107477,4,2,-50,4,-2,22,2,-29
1523078799116431,-2,19,21,-5,-3,-42,-21,-4
1523078799116431,-7,-18,-10,5,-2,16,-2,23
1523078799131495,28,31,30,-2,11,34,43,95
1523078799131495,-25,-44,-19,-14,-14,-40,-51,-97
1523078799132446,-23,-53,-37,2,2,19,12,18
1523078799132446,-33,4,3,24,11,5,-7,-39
1523078799153510,3,36,13,-1,-6,-16,-1,59
1523078799153510,3,-10,11,-4,-3,5,8,-1
1523078799155459,13,30,3,-10,0,9,7,11
1523078799155459,6,-24,-9,-10,5,26,14,-53
1523078799167520,-20,-35,-8,5,1,-30,-19,-23
1523078799167520,8,4,4,1,-16,-20,-20,15
1523078799176476,-16,7,-5,0,-6,-13,-11,-45
1523078799176476,-7,-13,-2,3,10,23,20,-22
1523078799191518,81,59,37,-11,0,1,-7,83
1523078799191518,-24,-81,-77,1,-4,-14,11,-6
1523078799192487,-21,88,16,4,3,-3,-17,-44
1523078799192487,28,-22,-22,4,4,0,1,68
1523078799213553,-18,1,18,-4,-6,-1,6,30
1523078799213553,12,47,29,-6,0,7,-1,18
1523078799215504,23,16,11,3,-2,-8,-3,21
1523078799215504,-9,-15,-16,-2,6,8,14,27
1523078799227563,-26,1,-9,-6,-3,12,-17,-71
1523078799227563,-3,-10,-6,4,-1,-31,-3,-5
1523078799236516,-9,-38,12,5,-4,-3,-4,-2
1523078799236516,21,23,-2,-7,-5,-14,-7,-19
1523078799258587,-12,-43,-15,1,2,14,10,47
1523078799258587,5,32,16,-14,1,32,8,-40
1523078799260537,5,31,0,-7,2,33,21,-45
1523078799260537,-32,-30,-10,14,-13,-59,-40,-66
1523078799273596,0,19,-32,1,-6,8,19,6
1523078799273596,5,23,34,-2,11,5,9,35
1523078799275547,19,-34,-40,-1,-8,-22,-25,-26
1523078799275547,14,47,46,-1,4,25,30,53
1523078799287606,-36,-33,-37,-8,-6,-9,-20,-101
1523078799287606,0,41,13,-5,-12,-59,-38,33
1523078799303564,-7,-98,-23,-3,-2,23,-1,-9
1523078799303564,-1,13,11,3,-2,-17,-1,3
1523078799311623,-2,16,-2,11,6,10,5,-20
1523078799311623,22,-59,13,0,1,27,18,10
1523078799317627,18,38,2,-5,6,39,28,49
1523078799317627,-70,-19,-9,-10,-12,-64,-51,-7
1523078799334640,11,1,38,-5,-5,26,20,85
1523078799334640,-28,33,-43,10,-1,-58,-31,-101
1523078799335586,7,-5,4,5,10,11,7,37
1523078799335586,-5,-99,-19,1,-6,17,6,-11
1523078799347648,12,24,3,-3,-5,-27,-8,27
1523078799347648,-12,-24,-2,-7,7,34,33,39
1523078799356636,-48,-40,-5,-10,-11,-4,4,1
1523078799356636,21,90,58,6,2,3,-19,-67
1523078799378670,2,-74,-43,15,-1,-4,-12,-43
1523078799378670,24,3,13,1,7,31,17,24
1523078799380631,-7,16,-15,1,4,-7,9,26
1523078799380631,13,10,2,-17,-5,-32,-20,47
1523078799393681,-2,4,-5,-5,-5,19,5,4
1523078799393681,-14,35,34,-2,0,-11,-17,-38
1523078799395631,-31,-3,-21,-13,-22,-96,-74,-109
1523078799395631,20,10,-38,18,11,72,32,74
1523078799407637,7,-44,20,5,-2,-18,0,-8
1523078799407637,6,20,0,-5,8,34,28,72
1523078799416673,12,77,57,-5,5,42,28,19
1523078799416673,8,-70,-54,-4,-8,-12,-12,-16
1523078799430707,-9,32,-15,3,6,-15,-16,-45
1523078799430707,26,13,26,3,1,19,3,-30
1523078799432657,0,-6,3,0,3,4,6,-65
1523078799432657,19,-10,-4,-6,3,3,40,34
1523078799453723,-21,24,-11,-11,-8,13,-6,-14
1523078799453723,-14,26,21,-13,-20,-68,-33,38
1523078799455689,-4,-91,-54,4,12,46,29,-30
1523078799455689,-9,1,-1,28,4,-54,-26,-19
1523078799467696,0,1,16,-1,1,15,19,56
1523078799467696,-6,0,6,1,-9,-39,0,17
1523078799476690,7,55,35,-1,3,16,8,15
1523078799476690,-5,-28,-24,-16,1,40,8,43
1523078799490750,-8,14,6,-6,-11,-85,-66,-84
1523078799490750,-25,-37,-21,0,-8,-6,2,35
1523078799492717,24,13,21,1,-1,-2,-25,-38
1523078799492717,-19,-4,-8,-5,2,15,5,-14
1523078799513766,4,31,8,0,-1,-2,5,57
1523078799513766,-33,-18,-17,-4,-1,71,9,-31
1523078799514750,5,11,-6,3,2,-37,1,59
1523078799514750,-17,34,6,-9,-2,-2,7,-9
1523078799527723,-11,-31,-12,-2,-10,5,-10,-17
1523078799527723,14,22,7,1,4,-14,1,8
1523078799536729,7,28,6,4,-1,22,14,60
1523078799536729,-5,-37,-18,22,9,68,22,-50
1523078799558795,4,2,-4,-7,-6,-54,-25,16
1523078799558795,4,-12,-9,-4,-7,5,0,-29
1523078799581816,13,53,19,-10,-4,-17,1,61
1523078799581816,7,19,-11,-7,3,-9,-19,-36
1523078799582772,-10,-3,10,8,-6,-36,-14,-46
1523078799582772,9,4,6,-4,4,50,2,-3
1523078799587819,-15,-35,-16,-4,-14,-23,-1,-26
1523078799587819,5,11,6,-13,-7,-23,-1,74
1523078799588768,0,-8,-5,4,13,35,24,19
1523078799588768,10,0,-8,-1,0,4,5,14
1523078799612836,-54,-5,-1,-4,-2,-13,7,38
1523078799612836,55,12,17,9,-5,-25,-22,-74
1523078799613784,-13,-23,-4,-2,3,14,-2,-13
1523078799613784,52,6,2,3,3,-8,-1,22
1523078799624807,-7,10,-14,-15,-1,29,16,28
1523078799624807,-12,87,65,-6,3,19,34,64
1523078799633853,-16,-22,-38,6,-1,29,-12,-12
1523078799633853,-11,44,11,9,-9,-65,-41,-41
1523078799634854,13,-15,6,6,0,-8,-11,-14
1523078799634854,-4,29,3,-17,-4,6,-16,26
1523078799647812,31,8,9,-2,12,32,42,61
1523078799647812,-8,-27,-20,-6,8,31,21,10
1523078799655868,58,18,11,7,-5,-61,-35,35
1523078799655868,-61,-26,-8,-5,-4,23,6,-58
1523078799670879,-1,3,0,10,5,-50,-4,8
1523078799670879,-28,-22,-8,-2,-13,-27,-41,-62
1523078799676883,81,8,1,8,11,18,9,-2
1523078799676883,10,-35,-15,4,9,4,21,16
1523078799693895,4,3,-11,-7,1,59,21,34
1523078799693895,-4,40,23,-7,-8,-52,-26,-55
1523078799694895,0,0,11,-10,-7,16,10,-6
1523078799694895,-22,-99,-69,-14,-12,-9,-14,-51
1523078799706904,3,9,42,26,18,34,27,19
1523078799706904,15,-8,-21,9,7,8,17,97
1523078799715911,-46,22,2,0,-17,-30,-34,-106
1523078799715911,16,-5,8,11,2,-13,-4,1
1523078799730897,2,15,4,-12,2,18,12,15
1523078799730897,-5,-22,-16,-2,10,3,24,102
1523078799736925,-17,-4,13,6,-4,49,-33,-97
1523078799736925,50,5,-12,-14,-35,-116,-60,37
1523078799760942,-22,-6,-3,3,15,-7,-26,-24
1523078799760942,25,43,23,15,51,106,97,96
1523078799762892,-22,23,10,-28,-34,-70,-48,-61
1523078799762892,21,-52,-40,15,-10,41,6,11
1523078799766928,-34,19,4,-10,-12,17,15,19
1523078799766928,21,-13,-11,-4,11,6,-13,8
1523078799775903,1,-22,-5,-12,3,35,48,84
1523078799775903,-25,50,5,-11,1,3,10,7
1523078799790911,-8,63,6,15,-4,-24,-24,-67
1523078799790911,-25,-12,18,7,0,4,-2,-47
1523078799796968,-7,-66,-12,25,11,-6,7,34
1523078799796968,-18,71,1,-10,-3,-20,-11,-19
1523078799813979,21,3,-17,-17,-6,1,6,16
1523078799813979,-25,33,-6,-11,-3,71,44,-15
1523078799814928,-16,-87,-31,-2,-10,-90,-80,3
1523078799814928,4,19,15,-3,-9,-25,-29,28
1523078799835996,-5,28,2,0,20,37,15,27
1523078799835996,7,-43,5,-6,-27,-28,-29,-49
1523078799837979,1,9,-4,9,3,28,110,88
1523078799837979,-12,42,9,-3,-2,28,3,-9
1523078799850005,-4,-20,-10,-9,-8,-24,-43,-97
1523078799850005,7,-8,-1,-4,-7,-25,-29,-2
1523078799858961,-3,-22,-9,7,32,32,44,3
1523078799858961,5,50,14,4,-12,-23,-42,-9
1523078799873022,6,-47,-5,-7,-13,-14,8,11
1523078799873022,-34,105,-12,-5,-15,-20,6,-11
1523078799888032,35,24,11,12,12,22,2,4
1523078799888032,-7,-1,21,9,21,18,55,7
1523078799889016,11,11,-11,-3,-17,12,-71,17
1523078799889016,-33,-88,-12,-8,-36,-60,6,-27
1523078799903994,-20,44,-5,-4,27,61,21,8
1523078799903994,23,-88,-6,-7,50,37,-51,-4
1523078799910998,-59,-36,-37,-25,-105,-71,76,-22
1523078799910998,17,-37,19,11,3,57,-110,9
1523078799917053,64,109,34,20,4,64,57,44
1523078799917053,-27,-93,-22,-23,23,-38,35,-35
1523078799934046,32,24,4,-6,-1,-76,-1,15
1523078799934046,-71,-128,-24,-11,20,72,4,-37
1523078799935014,-78,-60,-28,-13,-51,-68,10,-11
1523078799935014,32,127,38,24,46,50,10,28
1523078799956027,-19,-21,7,5,19,3,14,3
1523078799956027,16,88,16,12,-8,-57,4,6
1523078799958029,12,24,10,-7,16,16,-38,0
1523078799958029,-20,-102,-34,-18,-36,-30,48,-2
1523078799970038,68,117,46,31,25,43,-18,27
1523078799970038,0,-97,-1,12,-12,-28,-23,0
1523078799977096,-23,-45,8,6,21,28,68,6
1523078799977096,-70,52,-89,-42,-47,-53,-13,-56
1523078799994071,48,-63,-24,-24,7,40,28,4
1523078799994071,21,28,9,1,10,-60,-9,-7
1523078799995056,4,50,-11,-5,-28,-107,5,-19
1523078799995056,32,91,49,13,8,70,92,49
1523078800016124,-56,-128,-9,0,2,5,-15,-19
1523078800016124,45,70,-3,9,10,33,31,-38
1523078800018074,-2,82,-3,-3,3,0,-56,2
1523078800018074,-6,-38,14,8,22,-58,-9,13
1523078800030133,60,117,24,-13,5,51,52,23
1523078800030133,-27,-44,-15,8,-9,-32,18,-3
1523078800039103,74,-17,3,8,-6,12,-47,5
1523078800039103,-31,-85,-7,-4,-16,-3,5,-21
1523078800061155,30,83,33,-2,8,23,-101,10
1523078800061155,62,-26,-12,-6,-3,-50,-16,1
1523078800063140,19,17,10,9,16,83,20,2
1523078800063140,-41,-26,-60,-26,-49,-18,-45,-32
1523078800076166,-5,106,10,1,14,-21,53,-11
1523078800076166,-28,81,25,-13,-8,10,21,14
1523078800078152,34,26,-9,2,10,-19,-1,20
1523078800078152,99,-40,32,26,11,55,-9,73
1523078800090177,-98,-16,-19,4,6,-8,-28,-77
1523078800090177,10,-61,-9,-13,-11,4,-10,16
1523078800099146,-7,-44,-18,-18,-16,-33,2,6
1523078800099146,-7,112,92,-4,-3,23,2,22
1523078800114142,31,3,-78,29,1,7,4,46
1523078800114142,33,16,46,7,22,-9,13,-19
1523078800115143,-56,4,-41,-9,-14,-2,-39,-12
1523078800115143,26,-21,-15,-11,-2,4,10,-4
1523078800136213,-5,49,28,-13,-3,-16,0,19
1523078800136213,36,-5,-38,19,4,11,18,22
1523078800138157,-46,-72,-5,2,4,21,20,93
1523078800138157,90,112,26,0,0,9,-10,-109
1523078800165178,-68,-128,-65,13,-11,-22,-50,-55
1523078800165178,-20,88,-39,-24,-14,-34,-73,-94
1523078800176185,-37,-51,18,-8,3,-19,-4,44
1523078800176185,25,7,39,0,8,50,41,108
1523078800176185,43,10,43,-5,15,14,74,106
1523078800176185,-60,9,1,9,-5,20,-10,61
1523078800180226,2,-58,23,10,-14,-103,-27,-103
1523078800180226,-45,96,-2,-3,-5,78,-20,-92
1523078800196255,4,-30,13,-2,2,4,-7,0
1523078800196255,17,51,-15,-8,6,63,36,64
1523078800198201,21,-25,42,-7,38,42,106,107
1523078800198201,40,71,43,9,-7,37,77,127
1523078800210266,-88,-94,-99,-1,-32,-99,-90,-76
1523078800210266,45,-38,-43,1,-23,-53,-86,-113
1523078800217250,-72,48,-73,-23,-28,-3,-2,9
1523078800217250,25,-128,-73,11,43,-13,84,91
1523078800234234,51,126,52,-20,-10,61,-9,-67
1523078800234234,-68,-57,-23,-38,-30,-31,-50,-44
1523078800235229,29,-9,-52,53,20,44,37,34
1523078800235229,37,44,71,15,13,-18,11,69
1523078800256298,56,30,24,23,27,-17,85,127
1523078800256298,11,24,71,-1,30,-22,116,63
1523078800258243,30,5,37,5,3,52,-1,103
1523078800258243,11,4,-55,28,49,115,101,82
1523078800270253,-76,-39,15,-31,-86,-88,-80,-79
1523078800270253,-18,-18,-31,-38,-98,-36,-71,69
1523078800279258,75,105,76,-39,31,87,73,39
1523078800279258,-126,-128,-111,28,-7,-10,-71,-108
1523078800293325,12,44,102,-15,31,89,47,127
1523078800293325,34,-56,-126,-7,21,-24,9,-72
1523078800295270,-30,-42,23,47,-26,-25,-54,-128
1523078800295270,33,75,106,-28,5,37,28,75
1523078800323345,-18,-48,-102,-9,-25,-84,-38,-75
1523078800323345,-7,50,72,14,13,47,27,114
1523078800325298,40,26,15,10,-3,86,23,98
1523078800325298,-22,-25,-10,8,-7,-127,-50,-75
1523078800330295,-47,-22,42,1,-6,-49,-3,-88
1523078800330295,57,42,20,1,33,90,93,108
1523078800346313,-11,-23,-64,-16,-3,-10,-29,-30
1523078800346313,-75,-27,-28,-21,-16,48,-3,-7
1523078800385391,74,11,-22,-7,11,-26,-4,92
1523078800385391,-43,-16,-1,27,16,14,-23,-83
1523078800386337,-4,16,28,-15,6,-37,-13,-7
1523078800386337,19,-8,15,9,22,91,28,-22
1523078800387337,18,43,39,-23,-59,-57,-52,65
1523078800387337,-7,-23,-70,24,-12,-8,-1,10
1523078800392338,6,68,-17,-25,-31,-28,-54,26
1523078800392338,56,28,56,-9,-9,-40,5,119
1523078800392338,-6,49,-5,27,79,127,123,93
1523078800392338,-19,-6,26,7,-16,-60,-13,-49
1523078800398355,55,22,11,-3,-25,-40,-31,81
1523078800398355,-44,-2,-25,5,-9,-68,-60,-24
1523078800413353,39,-1,7,4,60,127,92,69
1523078800413353,-9,39,9,-19,7,127,73,-7
1523078800415361,-48,-52,-17,6,-28,-99,-88,-128
1523078800415361,7,8,1,-21,-38,-45,-17,-19
1523078800436427,0,-45,-38,-29,-16,8,-35,-40
1523078800436427,-9,18,-1,4,4,79,67,42
1523078800437370,13,-27,-20,-38,33,50,23,17
1523078800437370,-1,101,73,26,-5,-10,-14,61
1523078800449438,-42,-54,-72,56,29,30,45,-33
1523078800449438,16,21,56,8,-10,-118,-83,30
1523078800458443,-43,-49,-26,3,-45,-74,-33,-7
1523078800458443,7,22,-46,-39,-16,-12,-9,-4
1523078800473453,85,4,41,6,12,61,48,17
1523078800473453,-5,-7,-10,-17,32,10,24,68
1523078800475404,-2,0,-28,-8,8,38,16,-75
1523078800475404,-73,-26,-6,-2,-22,-43,-44,-59
1523078800496470,67,-20,-5,-9,6,62,-28,-64
1523078800496470,17,5,12,5,-4,-3,16,18
1523078800497415,-29,11,4,-21,31,58,52,33
1523078800497415,13,-42,-44,10,-2,35,23,73
1523078800509482,-65,21,31,-39,-39,-75,-55,-97
1523078800509482,-6,-8,-1,17,-18,-74,-56,106
1523078800518428,-11,-1,0,39,6,44,7,56
1523078800518428,5,-58,2,7,3,7,-16,6
1523078800533496,10,-1,-1,-15,16,62,63,102
1523078800533496,7,30,-7,-34,12,39,44,-21
1523078800535440,-24,57,2,1,-49,-114,-100,-61
1523078800535440,35,15,51,49,8,24,-14,-12
1523078800556514,-58,-21,-23,12,11,24,-7,-72
1523078800556514,-9,11,18,2,27,6,-18,-34
1523078800557455,6,5,0,1,46,112,75,41
1523078800557455,12,1,-44,-40,-24,59,52,66
1523078800569522,8,25,13,8,-47,-114,-105,-67
1523078800569522,-43,-2,16,9,-23,6,-53,-84
1523078800578471,48,-33,-28,11,10,37,3,-18
1523078800578471,-26,-26,-50,-53,5,29,7,-5
1523078800592538,19,9,-30,0,-23,-28,74,95
1523078800592538,40,18,92,-18,14,48,8,58
1523078800601488,-21,25,95,99,27,67,52,34
1523078800601488,-19,25,10,36,18,-29,-31,-68
1523078800623561,-11,-19,-42,-14,-8,-55,-63,-3
1523078800623561,-10,-65,-88,-30,-43,-42,5,-2
1523078800625517,11,12,-13,-60,-11,59,59,68
1523078800625517,-16,-6,13,-2,10,16,18,18
1523078800629507,2,-2,16,15,-12,-111,-88,-39
1523078800629507,-13,-6,-9,-18,28,76,11,-27
1523078800638513,-32,-38,-64,-14,-34,-4,-6,-125
1523078800638513,14,-6,9,-22,-5,0,21,33
1523078800652581,18,33,18,-38,42,127,127,99
1523078800652581,-21,-26,52,85,-53,-74,-67,-22
1523078800661529,36,30,68,43,30,41,35,21
1523078800661529,-86,13,19,-60,-16,57,29,-36
1523078800676556,35,7,-44,86,27,81,58,74
1523078800676556,1,-26,-38,-39,-13,-46,-13,-9
1523078800677543,-18,1,-11,21,-17,-107,-51,-79
1523078800677543,13,0,-17,6,45,78,-32,-16
1523078800689550,-10,8,23,-42,17,98,37,29
1523078800689550,-19,14,-33,24,-31,-52,-1,53
1523078800698566,18,-16,-3,-11,10,-35,-55,-20
1523078800698566,-31,-1,2,-2,2,-41,-36,-46
1523078800712623,59,-27,-15,9,-3,-7,10,-34
1523078800712623,42,15,-8,-13,-1,46,52,28
1523078800719628,34,5,19,-31,-17,-43,22,78
1523078800719628,-44,-10,-28,19,1,-24,-1,18
1523078800736583,11,60,26,-27,-7,4,-20,55
1523078800736583,-2,-24,-2,39,15,44,18,-61
1523078800737604,-40,40,29,-49,-17,5,7,-56
1523078800737604,24,7,-14,16,-13,-17,-29,-42
1523078800749651,-33,-31,-2,12,-41,-128,-102,-27
1523078800749651,56,24,-8,-28,41,115,79,127
1523078800758614,-16,-12,-27,-27,9,93,18,-29
1523078800758614,17,-28,22,30,-62,-92,-63,32
1523078800772666,-7,-5,39,37,40,112,17,14
1523078800772666,-13,12,16,3,39,21,-28,-6
1523078800781615,-28,-32,-51,-1,-33,40,22,56
1523078800781615,20,-7,-33,-29,44,80,41,17
1523078800796626,-9,-20,-18,-25,-43,-102,-27,-22
1523078800796626,-15,34,44,-51,-5,-28,4,-8
1523078800797627,-16,-34,-33,20,7,-13,-9,21
1523078800797627,115,59,108,26,16,-1,25,-7
1523078800818699,-47,-111,-100,20,3,20,6,-8
1523078800818699,-9,39,35,-19,-20,-59,-40,-38
1523078800820642,15,67,32,-24,2,29,17,50
1523078800820642,10,11,-7,22,-12,10,-15,-8
1523078800832701,8,0,12,29,4,-42,-29,45
1523078800832701,53,49,17,2,38,32,15,48
1523078800841658,-54,-108,-89,-2,-29,-128,-121,-73
1523078800841658,22,48,18,-26,15,35,37,-38
1523078800856679,8,30,29,-20,19,94,71,43
1523078800856679,4,-2,-16,22,-18,38,-10,8
1523078800857674,22,35,23,9,13,4,36,47
1523078800857674,-30,-48,-60,-9,-29,-44,-14,-17
1523078800878742,-32,-15,12,-23,5,-35,-12,-97
1523078800878742,-31,-3,20,18,6,-39,15,-55
1523078800880684,11,-2,5,6,9,-12,-41,15
1523078800880684,-23,-22,-29,-6,7,57,47,41
1523078800892701,1,14,17,-25,-20,-71,-28,-76
1523078800892701,19,3,-24,-6,-6,34,2,41
1523078800917770,-7,47,21,32,-9,-60,-40,-13
1523078800917770,26,-22,-27,13,-3,-16,3,44
1523078800917770,-26,61,23,4,3,46,-2,-7
1523078800917770,-17,-30,-28,-11,12,29,30,20
1523078800923736,33,47,55,-36,30,100,84,68
1523078800923736,-20,3,12,23,-32,-93,-56,-104
1523078800938726,30,-16,-16,17,-12,-30,-17,2
1523078800938726,-22,4,-18,-1,-1,-28,3,14
1523078800946732,2,0,9,6,25,15,-6,-24
1523078800946732,-30,-28,-21,-15,-14,-9,-37,-70
1523078800952737,-15,5,3,-4,-12,-2,12,4
1523078800952737,21,-8,-22,-12,-7,-1,22,40
1523078800961742,-5,32,-6,-15,3,53,42,55
1523078800961742,-6,37,33,17,10,-22,-31,-33
1523078800975811,-13,-34,-25,-9,-6,-72,-19,8
1523078800975811,-1,29,22,4,2,19,-17,32
1523078800977754,-12,5,-54,-3,-4,-29,-27,-79
1523078800977754,51,22,68,45,4,10,8,34
1523078800998828,10,10,25,-3,-1,10,17,47
1523078800998828,-16,-19,3,-18,48,118,56,10
1523078801000771,-11,-5,1,5,-20,-90,-42,-85
1523078801000771,10,18,-61,-38,-33,-111,-42,8
1523078801012781,-32,-23,14,22,-1,-14,-28,-4
1523078801012781,-1,-9,9,0,-5,37,6,-13
1523078801020843,8,0,7,-8,11,9,-5,31
1523078801020843,6,14,-5,-16,11,52,28,11
1523078801035853,26,-12,-18,-10,22,98,66,31
1523078801035853,-58,6,23,35,-29,-128,-82,-36
1523078801037813,-15,-65,-23,-18,-25,-70,-8,-31
1523078801037813,-20,9,1,6,3,24,10,16
1523078801058871,9,18,20,-25,0,9,-6,9
1523078801058871,17,36,-65,-27,-4,10,5,-1
1523078801059851,-8,-34,34,53,28,127,78,127
1523078801059851,-37,-12,8,-32,-20,-92,-78,-97
1523078801072827,67,37,14,23,10,-8,-10,2
1523078801072827,7,0,-6,-2,-4,7,9,-15
1523078801080828,4,4,0,-8,-9,3,-2,22
1523078801080828,5,-25,-33,-15,0,34,40,70
1523078801095897,7,5,2,-4,11,43,25,29
1523078801095897,10,-17,7,5,7,47,29,-73
1523078801097840,-7,-16,-40,-5,-28,-92,-69,38
1523078801097840,21,14,37,-2,16,61,36,-20
1523078801118912,-64,-19,-9,2,-7,-69,-60,-88
1523078801118912,9,-3,-1,-19,-14,-30,5,16
1523078801119922,56,40,-1,-1,30,126,73,39
1523078801119922,-32,-50,-37,-1,-34,-107,-65,-88
1523078801140929,-7,-9,-2,17,-5,50,20,63
1523078801140929,-1,2,-4,12,14,9,-15,-9
1523078801142887,3,36,8,-14,-9,24,-1,-37
1523078801142887,0,5,7,-33,-2,22,32,59
1523078801155938,-53,-5,-27,4,-11,-24,-3,-79
1523078801155938,-5,-14,31,25,-17,-71,-30,-42
1523078801157886,1,-15,-9,-5,-50,-58,-26,-18
1523078801157886,7,-8,-5,25,60,47,25,63
1523078801178954,-10,-12,-14,-31,-62,-5,1,-1
1523078801178954,3,-18,-23,-28,20,-16,-20,-16
1523078801179897,-31,3,24,43,37,15,-1,-29
1523078801179897,33,20,14,-30,-24,43,31,36
1523078801191949,8,5,2,7,18,-13,6,29
1523078801191949,4,77,25,15,-36,11,12,49
1523078801200914,-22,-116,-46,-23,1,74,52,-15
1523078801200914,-20,11,-20,7,-22,-66,-61,-28
1523078801223968,1,39,33,11,-2,38,-16,30
1523078801223968,13,-12,-6,-7,-9,29,2,-29
1523078801224929,26,49,21,-2,12,-4,-13,27
1523078801224929,-10,-12,-6,22,11,60,50,35
1523078801246002,10,-19,-3,-25,8,-4,-9,-12
1523078801246002,-6,-11,-8,10,0,-47,-7,3
1523078801247950,-20,19,15,-13,14,23,-25,-17
1523078801247950,-4,-14,-8,10,0,-22,-12,-24
1523078801269020,5,13,3,-17,-10,25,20,4
1523078801269020,2,-16,-3,26,16,-13,-3,-11
1523078801269962,-5,-3,-4,-40,-4,-12,22,-6
1523078801269962,1,35,18,9,9,-49,-48,17
1523078801276024,-4,-19,9,24,10,9,-15,-26
1523078801276024,7,-38,-16,-21,-15,28,13,18
1523078801300041,-71,-32,7,21,4,-43,-31,-48
1523078801300041,66,4,-27,-12,-5,91,44,24
1523078801300041,-6,21,23,-7,7,-43,-5,14
1523078801300041,15,40,15,14,8,12,-7,2
1523078801305025,19,-5,17,13,4,35,29,39
1523078801305025,-8,22,12,-22,2,-21,1,19
1523078801312049,-41,-30,-32,-2,-12,-37,-3,-49
1523078801312049,20,-49,-14,10,13,-1,0,-24
1523078801320999,10,6,-4,-19,-12,-15,-16,8
1523078801320999,-29,-4,6,23,10,7,6,12
1523078801337009,10,7,-6,-4,7,7,9,33
1523078801337009,-17,7,6,-9,-16,-15,-17,-15
1523078801338030,30,50,-17,-14,-1,21,24,25
1523078801338030,-13,-36,-10,19,17,47,37,88
1523078801358083,-17,-1,39,18,-15,-83,-99,-91
1523078801358083,-15,-9,-25,-12,4,10,0,79
1523078801365033,24,10,6,-6,-9,-5,-11,24
1523078801365033,-3,14,1,-12,-8,24,19,-5
1523078801381100,24,-13,-31,1,2,3,5,10
1523078801381100,-22,19,28,-3,10,22,13,-18
1523078801383046,15,-28,-8,3,8,26,21,4
1523078801383046,0,-12,12,18,15,32,22,33
1523078801404056,-14,12,0,-14,-23,-51,-24,-74
1523078801404056,2,1,13,0,-22,-97,-69,-13
1523078801405058,5,5,-4,-1,-4,28,28,16
1523078801405058,-19,-4,-25,-12,5,-93,-88,-37
1523078801419126,8,21,5,4,12,74,47,52
1523078801419126,-6,-50,-36,-3,3,30,22,18
1523078801421073,20,37,35,-20,19,65,58,47
1523078801421073,-10,-6,-28,23,-19,-56,-7,-12
1523078801432135,-35,-17,3,1,-25,-22,-26,-23
1523078801432135,39,-4,6,-7,10,53,11,13
1523078801458113,6,-7,-5,-2,-6,-15,-27,-6
1523078801458113,17,9,3,-7,12,61,47,15
1523078801459097,31,20,16,17,14,41,20,61
1523078801459097,-42,0,-2,-39,-20,-67,-29,-54
1523078801462156,9,-15,-12,9,5,-33,-21,5
1523078801462156,-7,23,5,3,-11,-12,-10,-29
1523078801479111,-19,0,-6,11,15,13,11,35
1523078801479111,5,11,13,12,6,19,10,-4
1523078801480111,-12,24,30,-15,-13,-3,-4,21
1523078801480111,-24,-72,-31,17,-16,-93,-53,-62
1523078801501183,9,-20,-16,-14,2,7,8,40
1523078801501183,-2,15,15,9,12,37,35,36
1523078801503142,7,24,-3,8,2,-17,-25,-36
1523078801503142,-4,-24,0,-16,-13,34,15,6
1523078801515194,25,8,-27,-16,5,10,9,-2
1523078801515194,-41,-15,4,1,-10,-37,-13,8
1523078801522142,-9,3,-7,10,-9,-40,-17,-20
1523078801522142,13,11,18,-12,1,56,21,17
1523078801555222,31,30,-18,1,37,109,71,79
1523078801555222,-24,-45,10,-1,-36,-96,-86,-100
1523078801556178,-35,-44,-23,3,-5,20,-32,-61
1523078801556178,38,20,28,-3,12,24,8,8
1523078801557168,4,1,-6,-6,-3,9,13,19
1523078801557168,16,28,-5,-2,25,111,61,99
1523078801569178,-15,21,-21,2,-25,-116,-43,-109
1523078801569178,-18,-32,14,4,-1,17,-4,13
1523078801575236,-3,-5,1,-9,-4,-42,-28,-3
1523078801575236,24,6,-7,1,3,12,16,24
1523078801590226,-6,0,14,8,1,-7,-4,15
1523078801590226,-6,21,-4,-13,-4,17,5,-17
1523078801598254,8,-7,-1,-3,-17,-14,1,-3
1523078801598254,-1,-6,-13,-1,23,52,46,24
1523078801600201,6,27,-1,-5,1,-18,-18,31
1523078801600201,-8,-72,-25,4,-25,-97,-70,-83
1523078801612261,-1,-6,23,5,1,19,10,3
1523078801612261,11,7,-5,6,-2,-7,-3,-17
1523078801621212,-1,8,-3,-3,-8,30,33,44
1523078801621212,-5,-20,-17,-9,22,37,22,9
1523078801635280,-6,0,3,2,3,-5,-17,-28
1523078801635280,5,1,-1,1,-4,-5,15,-9
1523078801642285,4,-10,3,1,-11,-32,-21,8
1523078801642285,-14,27,1,-4,-14,-10,-11,-15
1523078801658296,-16,-12,-7,-10,-7,-2,0,-12
1523078801658296,49,17,6,2,9,25,14,14
1523078801660241,-7,-30,-2,6,15,11,0,-4
1523078801660241,-2,18,-1,-2,-5,7,3,13
1523078801688317,1,-2,-4,-5,5,3,10,-4
1523078801688317,-10,23,13,6,4,61,33,8
1523078801690263,9,19,6,-16,-2,-17,-10,5
1523078801690263,19,-42,-12,23,-5,37,24,13
1523078801695322,-15,-42,-6,3,-14,-72,-41,-35
1523078801695322,6,1,-3,-3,-16,-22,-28,-38
1523078801710283,-26,6,0,-6,1,33,25,3
1523078801710283,20,48,23,-9,13,58,24,36
1523078801741338,-14,11,-6,3,4,29,15,5
1523078801741338,-6,-14,-5,0,-9,-27,-11,-6
1523078801772377,19,-8,-2,4,12,12,10,13
1523078801772377,-15,17,-9,-5,-4,-10,-4,-5
1523078801773320,10,13,7,7,-9,-13,-5,0
1523078801773320,-3,-19,5,-13,5,0,-10,6
1523078801774320,-6,-20,-21,12,3,37,20,44
1523078801774320,-8,30,18,-6,-8,-74,-34,-79
1523078801787387,-3,-48,-28,-5,-16,-37,-54,-70
1523078801787387,-9,-3,11,-4,-2,2,-1,12
1523078801789343,11,33,16,1,15,25,22,24
1523078801789343,-11,6,-6,0,-1,2,0,1
1523078801794337,18,-6,20,-3,-2,-4,-5,3
1523078801794337,0,1,-17,-6,-8,-22,-16,1
1523078801808402,16,-5,3,-7,16,78,55,20
1523078801808402,-14,1,-30,9,2,-23,-31,81
1523078801816409,14,-5,10,2,-27,-80,-73,-65
1523078801816409,26,1,-7,-3,4,13,6,-24
1523078801817355,-5,8,2,-3,3,7,5,15
1523078801817355,12,32,0,-2,8,34,32,-5
1523078801854378,5,25,0,0,5,11,19,40
1523078801854378,-31,-33,-3,1,-3,-15,-10,15
1523078801855383,1,1,5,0,3,3,1,1
1523078801855383,-8,0,20,1,-4,-10,-3,-4
1523078801856384,13,53,-4,-1,17,59,42,-16
1523078801856384,-9,-80,-27,4,0,7,4,46
1523078801861440,-6,31,13,-1,-25,-42,-41,-92
1523078801861440,-4,-14,3,4,0,-4,-21,-44
1523078801862387,-16,-1,16,-4,-8,-17,-20,-42
1523078801862387,-3,32,-4,-5,13,65,43,36
1523078801875449,2,-7,-28,-10,0,-17,8,43
1523078801875449,-1,-2,0,3,-16,-25,-18,-9
1523078801882436,-8,-17,-5,3,8,13,17,12
1523078801882436,1,8,10,0,3,-2,-13,-33
1523078801898467,4,-9,-3,-2,-7,-22,-16,29
1523078801898467,-2,5,1,-3,-4,-6,2,-25
1523078801904427,-1,-35,-20,-5,6,9,7,15
1523078801904427,0,7,1,-2,-9,-14,-1,-14
1523078801921483,3,-9,2,-4,1,5,-4,21
1523078801921483,1,10,4,3,16,55,43,-2
1523078801922425,-10,-31,-1,5,-8,-96,-55,26
1523078801922425,-5,15,5,-9,-21,-53,-38,-14
1523078801943498,-6,35,-20,-3,5,13,1,-36
1523078801943498,-8,-56,13,1,3,12,0,-18
1523078801945444,-5,-32,-8,-5,-7,8,7,2
1523078801945444,10,33,12,3,3,20,12,36
1523078801958454,-29,22,22,-1,4,28,29,17
1523078801958454,40,12,-28,2,-10,-32,-16,13
1523078801960456,11,-17,0,-4,1,2,7,-32
1523078801960456,-11,15,10,-1,0,7,-1,11
1523078801988530,27,3,35,-6,3,41,38,36
1523078801988530,-12,-25,-57,-1,-17,-60,-51,-77
1523078802002521,-10,-9,1,-2,-1,13,13,12
1523078802002521,14,29,15,-11,3,16,16,9
1523078802026557,-6,11,12,6,6,27,13,8
1523078802026557,-14,-54,-32,4,3,3,1,7
1523078802028539,30,51,21,-8,-7,-39,-21,19
1523078802028539,-45,-45,-25,26,1,16,-5,-49
1523078802040567,5,5,14,-2,-6,7,7,20
1523078802040567,-6,32,10,-9,5,3,6,23
1523078802048533,-7,-10,-12,-2,-3,24,8,-21
1523078802048533,16,16,5,-14,2,37,32,20
1523078802049516,-5,-11,-7,7,-3,-55,-51,-2
1523078802049516,-14,7,8,6,-2,12,4,-7
1523078802065527,-10,18,-6,-4,-4,32,7,-62
1523078802065527,7,-30,-9,-5,-1,-42,-29,-5
1523078802066532,-5,-8,-3,5,-1,-1,0,-10
1523078802066532,2,7,7,-22,-8,-3,9,31
1523078802069588,-6,12,21,14,7,8,1,-4
1523078802069588,-4,-53,-35,0,4,-3,1,-1
1523078802086551,0,6,4,4,1,-18,-19,-26
1523078802086551,2,-4,1,-2,0,-5,9,-1
1523078802087545,16,41,34,-6,2,32,34,56
1523078802087545,-1,-41,-30,-6,-14,-50,-17,21
1523078802108615,-37,11,-5,-6,-5,8,-26,-85
1523078802108615,36,7,17,3,7,13,9,33
1523078802110597,-14,-33,-17,4,-1,-28,-32,-37
1523078802110597,30,27,17,-2,3,13,19,48
1523078802114602,7,-8,-14,-2,17,57,45,28
1523078802114602,11,20,9,3,-5,-76,-31,27
1523078802123569,-4,-15,-15,-7,-26,-43,-38,-53
1523078802123569,-20,-25,-9,9,11,15,-7,-11
1523078802137637,10,-9,0,5,8,-11,-10,-7
1523078802137637,-10,4,2,1,9,46,32,6
1523078802153606,7,-7,-8,-5,1,22,16,44
1523078802153606,0,44,20,-8,-14,-2,4,-10
1523078802161602,5,-31,-20,-6,-7,-38,-1,0
1523078802161602,-23,-11,-3,-4,-6,-39,-41,-33
1523078802162597,-8,3,4,11,4,44,31,29
1523078802162597,3,14,4,-11,-12,-57,-22,-37
1523078802174625,3,-5,2,4,-7,23,3,33
1523078802174625,-10,12,3,-1,-9,-16,-16,-21
1523078802189673,-1,-12,-12,-9,4,-3,-1,-1
1523078802189673,-4,7,0,10,16,54,18,-5
1523078802205627,6,0,5,2,10,-13,8,25
1523078802205627,-5,25,29,-5,-25,1,1,4
1523078802207649,-1,-51,-45,-3,6,17,17,20
1523078802207649,0,42,48,6,4,5,12,-10
1523078802221650,-13,-10,-4,-9,-9,-11,-16,-7
1523078802221650,-3,11,-4,2,2,-30,-24,-11
1523078802222639,0,19,12,-1,0,8,8,11
1523078802222639,-1,-31,-14,-4,-1,3,-2,36
1523078802234705,7,11,3,3,3,4,5,-30
1523078802234705,-4,7,6,5,11,34,31,-10
1523078802244657,-19,-5,1,-6,-16,-55,-33,-45
1523078802244657,-3,19,-27,-6,-3,-8,-10,-25
1523078802266677,2,3,8,6,4,11,4,22
1523078802266677,-6,-46,-23,-14,6,10,2,19
1523078802267671,2,2,5,-4,-4,-13,-8,-4
1523078802267671,8,16,6,4,-6,32,21,3
1523078802296693,-14,-4,1,-3,-6,-24,-18,-11
1523078802296693,6,16,-2,2,-5,7,8,2
1523078802298693,-3,-42,-22,-7,-5,-24,-20,21
1523078802298693,-1,6,17,1,7,3,2,-41
1523078802298693,6,-4,-2,-8,1,13,1,19
1523078802298693,-3,3,-8,5,-1,-11,6,-20
1523078802327718,-12,18,8,4,0,6,-4,-7
1523078802327718,1,16,-2,-7,-6,3,6,17
1523078802340731,4,-10,-4,-2,-4,-10,4,9
1523078802340731,8,14,11,-1,8,39,19,49
1523078802387816,-23,-25,-20,0,2,-11,-16,-74
1523078802387816,56,-10,-8,-2,1,-7,-3,26
1523078802388762,-1,14,6,2,-11,-42,-37,-6
1523078802388762,-6,-6,-6,-2,-5,0,4,14
1523078802400823,15,18,7,4,3,13,13,35
1523078802400823,-24,-3,0,-2,3,9,-2,-20
1523078802401772,1,-13,-13,-5,-8,-3,3,-5
1523078802401772,5,-4,-1,-2,-4,-3,-4,-1
1523078802408774,-3,3,-10,0,0,-1,-2,-8
1523078802408774,1,-14,-11,-6,-1,7,-1,-13
1523078802409773,22,41,17,1,12,29,22,38
1523078802409773,-30,-73,-35,-5,-11,-28,-36,-4
1523078802414796,-6,-4,27,1,-8,-14,-2,-54
1523078802414796,-6,-47,-21,-1,0,2,2,-7
1523078802430848,7,28,7,-3,-2,-1,0,18
1523078802430848,-1,17,-3,-8,1,13,11,11
1523078802438850,-1,2,-10,-4,5,17,10,15
1523078802438850,-9,8,19,5,1,-20,-17,-14
1523078802439809,-3,2,-4,4,1,5,2,1
1523078802439809,1,9,8,-4,-3,-2,-2,-6
1523078802461866,-6,-11,-18,-3,-3,-7,-6,-3
1523078802461866,7,12,3,-1,1,5,6,1
1523078802463814,-10,-10,-7,0,-2,-12,-4,-1
1523078802463814,5,16,26,4,1,-3,-3,15
1523078802474879,-2,-1,-19,0,-3,4,1,-8
1523078802474879,-6,-6,-12,-1,1,-3,-6,-29
1523078802483830,-6,10,13,-4,-3,-10,-7,-1
1523078802483830,0,-3,-15,-9,5,36,34,31
1523078802497842,0,28,28,2,4,4,-6,12
1523078802497842,-9,-18,-22,3,-16,-79,-39,-52
1523078802504900,1,-20,-5,-5,-8,-19,-4,-1
1523078802504900,-5,23,6,-5,-3,-4,-4,-5
1523078802520908,8,-19,-5,7,12,27,21,29
1523078802520908,-2,20,12,-3,4,28,15,17
1523078802522873,4,4,2,0,0,-3,-9,10
1523078802522873,-6,-13,-18,-4,0,-1,1,-26
1523078802534919,-5,-8,0,-2,-4,-4,-3,-15
1523078802534919,-3,2,13,4,3,8,-4,3
1523078802543868,0,1,-14,-2,-2,0,5,5
1523078802543868,10,4,8,2,-2,-2,-6,8
1523078802557935,-3,2,-4,1,-3,-8,-10,-9
1523078802557935,5,-1,-3,-5,-6,4,5,4
1523078802564940,-2,7,5,-2,5,2,3,3
1523078802564940,2,6,-8,-2,0,8,2,-10
1523078802580952,1,6,26,-2,-4,-35,-14,-4
1523078802580952,-3,-38,-33,5,-2,7,-5,8
1523078802582895,-3,-3,8,0,-5,0,2,9
1523078802582895,-4,6,4,1,-6,-16,-15,-14
1523078802594961,0,-5,-11,-5,-4,6,12,-10
1523078802594961,6,22,13,-5,11,29,16,38
1523078802609972,-5,7,0,-2,-2,30,5,-1
1523078802609972,-9,-11,-1,-2,-17,-85,-30,-96
1523078802617958,1,5,-8,8,4,1,-8,27
1523078802617958,-8,-6,-2,-1,1,0,3,-3
1523078802624983,3,-2,-3,-2,2,4,0,19
1523078802624983,6,6,5,-3,6,24,12,31
1523078802639994,-3,-4,-6,-6,-2,8,12,-8
1523078802639994,2,-3,-9,-10,0,22,13,6
1523078802665954,-9,2,3,3,-15,-87,-62,-9
1523078802665954,0,-7,26,-2,-6,3,-8,-52
1523078802666969,-4,-6,-37,-2,-3,-11,-5,-6
1523078802666969,-4,-7,4,2,5,23,16,13
1523078802669961,1,19,5,-5,2,24,15,-9
1523078802669961,2,5,2,4,2,-6,-7,17
1523078802677964,4,3,7,1,-1,-5,-2,8
1523078802677964,4,12,1,-6,-5,6,1,-6
1523078802685006,-2,-7,5,-1,-2,1,9,7
1523078802685006,-2,14,-11,11,6,-4,-10,-15
1523078802701037,-5,-9,-1,-3,0,18,5,-2
1523078802701037,-1,6,4,1,6,-12,-9,-3
1523078802702983,1,-5,-2,-4,-7,-5,0,-9
1523078802702983,6,3,-5,-2,0,15,17,48
1523078802715048,0,6,1,-3,7,66,32,16
1523078802715048,-11,3,-1,-12,-26,-94,-61,-65
1523078802723997,-7,10,-12,11,-1,-40,-27,-10
1523078802723997,-9,-94,-27,-7,0,25,3,-23
1523078802738005,2,18,6,4,-3,-11,-7,7
1523078802738005,3,6,3,4,10,35,22,17
1523078802746012,2,6,1,-5,6,23,20,2
1523078802746012,1,8,-5,-5,-2,-19,-10,22
1523078802761079,-6,-8,14,9,0,-10,-8,3
1523078802761079,-6,-24,-13,0,0,6,8,-9
1523078802763023,3,9,12,-3,-2,1,-2,-8
1523078802763023,0,21,-5,-1,0,8,5,15
1523078802775089,4,-31,-13,-6,-3,-12,-6,1
1523078802775089,1,25,15,4,0,7,5,6
1523078802784038,-3,-20,-17,-2,-2,10,-2,-13
1523078802784038,0,14,-3,-1,-1,-11,-6,14
1523078802798106,3,31,39,-8,-5,-10,-2,14
1523078802798106,0,-27,-23,6,-2,0,-1,8
1523078802805111,-9,7,-2,5,6,32,10,-59
1523078802805111,3,-8,-3,0,-3,-10,3,17
1523078802829071,-3,-17,-2,-4,0,7,5,-10
1523078802829071,3,1,-1,-2,-3,-29,-15,23
1523078802830070,6,7,-2,-5,-2,30,11,16
1523078802830070,-4,4,4,3,1,-29,-10,1
1523078802843137,-2,1,-3,-3,-8,6,0,-25
1523078802843137,-3,-5,6,-4,-3,1,10,-8
1523078802850144,1,-8,-9,-3,3,1,4,21
1523078802850144,-5,11,12,9,5,19,0,-29
1523078802857149,-3,-14,-11,0,0,-15,-6,5
1523078802857149,4,7,4,-2,-1,17,12,9
1523078802872121,2,-3,-1,0,2,-10,-1,18
1523078802872121,-6,6,-1,-7,-3,27,14,-12
1523078802888126,-1,-19,-11,-6,-5,-40,-29,-3
1523078802888126,-5,5,-4,2,-2,5,-4,-8
1523078802941166,2,-2,6,0,-3,-7,-1,10
1523078802941166,3,18,1,-3,8,5,7,23
1523078802941166,-2,-4,-11,-3,1,3,-3,-11
1523078802941166,-2,-1,0,-1,0,10,9,-6
1523078802951158,0,-13,-2,-4,-5,28,-4,5
1523078802951158,-1,13,10,-1,-6,-49,-23,2
1523078802951158,-6,-6,-12,-2,-2,0,-2,-13
1523078802951158,1,-3,2,-1,1,-3,-2,10
1523078802964168,-1,-14,0,1,2,18,18,17
1523078802964168,-2,-10,-8,-4,2,9,-7,-18
1523078802965169,5,-22,-12,-8,-2,-27,-13,19
1523078802965169,-9,23,3,-6,-7,-6,-9,-34
1523078802966205,0,0,-10,-7,0,-10,-5,14
1523078802966205,0,-18,15,14,8,46,24,-22
1523078802978182,-9,18,-2,-4,-7,-23,-20,-4
1523078802978182,5,-6,-6,-2,-7,-16,-12,-9
1523078802986184,-4,-12,-4,-1,-1,-35,-17,-14
1523078802986184,0,12,4,-2,-1,10,9,19
1523078803001250,2,-2,-4,4,2,34,20,-4
1523078803001250,0,8,8,-3,0,-1,-1,9
1523078803003199,-3,2,-7,-4,-3,5,5,2
1523078803003199,-1,-14,-7,-6,-6,-27,-18,-6
1523078803023267,4,-10,6,7,1,8,3,9
1523078803023267,-6,1,-4,-4,-2,-5,-7,-9
1523078803025209,0,10,3,5,4,10,7,-4
1523078803025209,-1,4,5,-3,-4,-13,-11,-13
1523078803037277,1,15,3,-3,0,-5,1,5
1523078803037277,-2,-13,-13,2,4,9,3,3
1523078803046224,-1,-1,4,1,-1,-5,3,-11
1523078803046224,1,7,-3,-4,-5,-10,3,15
1523078803061249,12,18,27,-1,11,54,27,41
1523078803061249,-15,-12,-30,-7,-15,-51,-38,-87
1523078803062238,-4,-9,8,-1,-7,-27,-24,-1
1523078803062238,1,0,-11,-1,-2,1,-4,-8
1523078803083309,-1,-5,1,-1,-1,-3,6,-27
1523078803083309,6,15,13,-1,8,42,28,49
1523078803085254,-1,-3,-1,1,2,3,0,-4
1523078803085254,0,3,-4,-1,-1,-11,-1,14
1523078803107274,-6,-2,-10,-4,-7,6,3,4
1523078803107274,3,10,4,0,0,5,-1,6
1523078803108289,-4,-11,-7,-5,-5,-14,-4,-11
1523078803108289,4,1,4,1,4,12,9,9
1523078803121279,-5,13,8,8,6,0,4,-7
1523078803121279,3,-17,-3,-5,-2,-14,-1,26
1523078803127342,2,12,-14,5,-3,-5,-7,-32
1523078803127342,4,-6,-11,-5,-6,2,-5,1
1523078803151300,-9,-2,2,-4,-8,-36,-27,-17
1523078803151300,4,13,9,0,2,8,11,11
1523078803168315,3,13,10,-3,2,18,13,10
1523078803168315,-3,-2,-1,0,2,5,-5,-17
1523078803169323,0,15,-1,-6,-2,-8,-2,3
1523078803169323,-3,-28,-11,3,3,16,8,15
1523078803172371,-7,-10,-14,9,10,34,29,13
1523078803172371,-5,3,4,2,-3,-21,-13,4
1523078803180319,-1,-11,5,1,-4,26,4,-42
1523078803180319,4,24,8,-4,-9,-60,-24,-2
1523078803196331,2,-7,8,-6,-9,-14,-19,-20
1523078803196331,-1,-12,-10,-4,0,4,11,32
1523078803204394,2,5,-12,0,5,9,8,16
1523078803204394,-1,4,12,7,8,38,12,1
1523078803226353,-14,-27,-23,-1,0,-3,1,-9
1523078803226353,-1,11,17,2,1,-8,0,0
1523078803227375,3,-8,-12,-4,2,15,11,15
1523078803227375,-6,17,26,-14,-9,-43,-31,-7
1523078803229355,-7,-76,-50,13,-5,14,-7,-16
1523078803229355,-1,2,18,-1,-5,-20,-13,-6
1523078803241363,1,-2,4,2,-1,-5,-7,-14
1523078803241363,2,-11,-11,-5,7,37,33,12
1523078803242368,-4,50,14,-8,-11,-30,-6,-14
1523078803242368,-1,-16,-11,1,4,8,-5,0
1523078803263437,-3,-14,-3,0,-5,-8,3,-15
1523078803263437,2,12,2,3,2,11,10,7
1523078803265380,9,10,10,-3,6,12,4,21
1523078803265380,-3,7,6,0,-3,20,9,5
1523078803277446,-4,0,-5,-6,-11,-54,-17,10
1523078803277446,-5,-9,-8,3,-5,-2,-20,-50
1523078803286396,4,5,1,-4,2,0,5,17
1523078803286396,-3,-8,-6,-4,3,14,11,-11
1523078803301463,6,19,-16,-4,4,42,12,27
1523078803301463,-4,-22,18,12,-6,-42,-27,3
1523078803302407,1,21,22,0,-1,1,1,3
1523078803302407,-1,1,-28,0,5,5,-4,4
1523078803323479,-10,17,16,0,2,16,9,-18
1523078803323479,4,-27,-31,-3,-3,-40,-5,10
1523078803325443,1,8,19,-1,3,4,2,-8
1523078803325443,-1,15,11,-3,-5,-14,-9,-26
1523078803337489,-2,1,4,-6,2,17,0,6
1523078803337489,2,-51,-27,-2,-5,-4,-4,-6
1523078803346438,-7,-12,6,5,3,20,18,18
1523078803346438,4,-3,-2,-3,-10,-53,-37,-9
1523078803360462,-10,-14,-5,0,-5,-13,-4,-4
1523078803360462,2,32,3,-8,-3,14,9,13
1523078803398532,-2,-4,-1,-6,-1,-10,-2,-18
1523078803398532,-20,1,32,4,5,33,19,-3
1523078803399513,1,-48,-49,-1,-5,-33,-21,-12
1523078803399513,-1,18,18,5,4,37,14,40
1523078803406480,-8,-8,-13,-5,-8,-45,-20,-19
1523078803406480,4,2,-2,-3,0,13,5,7
1523078803452552,3,21,16,-4,4,5,5,17
1523078803452552,2,-7,-8,2,9,41,31,12
1523078803454514,-9,-94,-33,1,-16,-85,-61,-42
1523078803454514,-7,1,-8,-1,-6,2,-7,-3
1523078803454514,-2,0,4,3,0,-19,-4,-12
1523078803454514,6,28,11,-6,2,11,8,2
1523078803459522,8,45,13,-9,5,42,24,35
1523078803459522,-2,-30,-24,-5,-7,-16,-7,-17
1523078803465581,-2,-5,14,8,5,-3,2,-1
1523078803465581,-6,18,10,0,8,24,3,-23
1523078803473586,-5,-79,-34,-3,0,17,4,-2
1523078803473586,-2,-1,-6,6,2,-3,5,2
1523078803475532,2,9,23,0,5,13,10,8
1523078803475532,6,15,-5,-13,-6,5,-6,-14
1523078803512556,6,29,5,-9,-5,-6,1,29
1523078803512556,-12,9,-5,9,2,8,-8,-30
1523078803513558,-3,2,20,2,-2,8,-3,-19
1523078803513558,2,0,-2,-1,-3,-3,9,-5
1523078803514557,-1,1,4,-2,-2,-18,-6,9
1523078803514557,-1,-2,-13,-11,-4,22,9,19
1523078803520564,1,-12,4,5,11,5,15,26
1523078803520564,1,19,-12,2,-4,-23,-16,-60
1523078803520564,-8,-44,-22,4,-4,13,0,-7
1523078803520564,13,15,25,-9,-3,-5,-3,15
1523078803526588,-4,28,-11,-8,-8,-17,-4,-7
1523078803526588,-6,7,8,4,12,19,9,27
1523078803540633,7,-25,-13,10,3,-11,1,14
1523078803540633,-3,-21,-7,-3,-3,27,3,-28
1523078803554643,-5,30,4,-1,-4,-47,-2,16
1523078803554643,4,-59,-16,-3,-6,-2,-12,-4
1523078803563650,1,61,23,-22,-11,-6,-4,-12
1523078803563650,-14,-55,-15,11,1,9,2,41
1523078803565594,5,8,1,3,2,22,4,-38
1523078803565594,-1,4,-1,1,3,-1,1,-8
1523078803577661,5,1,-10,1,0,-7,-6,7
1523078803577661,6,7,4,-11,-6,-15,5,7
1523078803586613,-7,-2,3,-9,-3,16,-3,-7
1523078803586613,4,-8,-10,5,2,12,8,-5
1523078803600676,-5,-2,11,3,1,-4,-9,-12
1523078803600676,2,38,3,-2,6,16,3,-20
1523078803607681,0,-3,-2,2,-13,-41,-24,27
1523078803607681,-1,-3,1,2,5,48,19,-37
1523078803623693,-5,-28,-17,-7,-8,-81,-44,-28
1523078803623693,11,19,11,0,8,19,7,31
1523078803625672,6,24,-2,-8,2,-32,-3,44
1523078803625672,-9,-50,2,7,-14,-13,-30,-70
1523078803653659,7,23,-5,3,-3,23,12,49
1523078803653659,-18,-9,-2,0,-2,-29,-14,-12
1523078803655661,21,44,27,-12,2,25,17,34
1523078803655661,5,30,37,15,11,29,21,44
1523078803676680,-15,10,-13,0,-2,1,7,-18
1523078803676680,1,-48,-48,3,-4,-25,-14,-46
1523078803677673,-4,-43,-27,-15,-10,29,3,-25
1523078803677673,4,28,18,0,4,-4,9,29
1523078803690740,-38,28,30,3,3,37,3,-7
1523078803690740,52,30,4,0,-5,-47,-15,-36
1523078803699694,-9,-10,-11,2,0,-1,-4,-38
1523078803699694,7,-17,-27,-14,-4,-4,9,39
1523078803700696,13,5,1,-2,12,32,13,6
1523078803700696,-25,0,8,-2,-5,4,-12,-33
1523078803713704,1,-15,-3,6,-7,2,1,-6
1523078803713704,-2,-6,-7,-5,-2,-20,-15,6
1523078803720760,12,-7,3,6,6,15,7,23
1523078803720760,-11,13,-4,-11,-1,17,8,26
1523078803744724,11,32,58,7,4,16,4,12
1523078803744724,-15,-89,-95,4,-3,0,-5,-9
1523078803744724,-1,13,28,5,-6,-33,-19,-20
1523078803744724,-3,19,13,5,-6,-14,-8,2
1523078803746729,-1,9,2,1,5,4,-3,5
1523078803746729,5,38,16,-8,8,29,31,34
1523078803765793,8,-17,-22,-7,-6,-19,-5,-15
1523078803765793,2,-17,-4,4,4,20,9,16
1523078803767745,-7,8,1,-5,-8,-46,-16,12
1523078803767745,-11,-22,-1,-4,-5,-15,-13,-41
1523078803788810,-2,-12,-8,-2,-6,-4,-3,-9
1523078803788810,-7,7,5,-4,6,0,6,17
1523078803790761,-21,55,5,1,23,79,37,27
1523078803790761,-14,-88,-28,13,-12,-43,-34,-59
1523078803818830,2,19,10,0,-5,-33,-24,24
1523078803818830,3,8,5,-5,-7,3,19,30
1523078803820777,-1,-13,-22,-1,7,10,0,17
1523078803820777,4,55,32,-10,0,12,10,24
1523078803825836,-14,-2,2,1,-7,20,13,-15
1523078803825836,-2,-24,-8,0,-4,-1,8,44
1523078803840794,3,-20,-18,3,-2,-11,-14,-48
1523078803840794,-4,44,28,-27,-9,2,5,24
1523078803840794,19,-9,-35,14,5,11,11,18
1523078803840794,-13,6,16,3,-3,-9,-7,-20
1523078803848797,-5,-92,-15,10,-8,-11,-7,-49
1523078803848797,-2,16,-12,1,-2,-8,-7,7
1523078803863862,5,52,37,-13,-7,4,-3,21
1523078803863862,-31,-23,-29,-1,26,0,-13,-60
1523078803865808,14,-20,-13,2,-18,7,14,34
1523078803865808,16,16,1,-3,-3,32,57,74
1523078803884822,-7,28,18,-23,7,-100,-72,-93
1523078803884822,9,20,11,6,-22,12,-17,14
1523078803917885,11,-21,2,-6,18,-7,-27,-43
1523078803917885,-1,18,-26,-8,9,10,16,63
1523078803918847,-1,-1,20,-2,-2,40,46,41
1523078803918847,-1,5,-6,5,-5,-44,-8,-32
1523078803931911,-80,-61,-34,-3,-8,-15,-11,4
1523078803931911,-2,17,-6,-3,-2,24,16,31
1523078803932867,27,52,27,12,8,5,11,26
1523078803932867,-67,-80,-30,-15,-17,-18,-23,-73
1523078803933858,33,100,47,1,-12,-47,-37,-81
1523078803933858,-1,-76,-35,10,21,24,10,51
1523078803959875,37,-11,1,-8,-17,-65,-27,-49
1523078803959875,9,28,9,-8,6,60,33,67
1523078803990953,36,15,-7,1,19,-28,5,60
1523078803990953,3,-3,26,-11,-52,14,-26,-62
1523078804007919,-2,-39,-38,-3,2,-25,22,33
1523078804007919,37,33,24,-5,21,63,20,-4
1523078804008912,-4,-76,-65,-18,3,-28,6,36
1523078804008912,-13,49,85,44,8,-45,-12,10
1523078804009911,-35,-34,-19,-6,-28,31,0,-48
1523078804009911,17,20,-16,16,-3,-27,2,21
1523078804029925,-20,-16,34,6,5,39,7,-96
1523078804029925,-1,-6,-2,-1,-6,-45,-17,2
1523078804031926,12,7,-21,-2,18,43,25,13
1523078804031926,-44,2,0,-12,-5,-20,-37,-25
1523078804051950,53,-2,6,9,-21,9,3,17
1523078804051950,-5,-6,-3,-10,-9,-29,-9,-67
1523078804052942,-52,7,-2,-3,30,97,29,61
1523078804052942,12,26,-5,-6,-18,-92,-31,-26
1523078804053948,-25,-39,-15,4,-11,-27,-2,34
1523078804053948,34,5,8,-7,17,36,4,-18
1523078804065955,-13,36,-10,-10,-16,-14,-7,4
1523078804065955,8,30,-2,5,-3,18,9,13
1523078804071962,-8,-20,-3,-17,-7,10,7,4
1523078804071962,60,16,-11,17,5,-3,5,45
1523078804095980,-11,-21,4,14,8,6,-5,5
1523078804095980,-9,22,13,-3,5,34,14,34
1523078804097973,-6,-18,0,-9,-7,-3,-4,-54
1523078804097973,-35,-4,-5,-5,0,24,14,8
1523078804103977,66,-16,-10,3,-18,-16,26,99
1523078804103977,14,10,7,1,25,12,-26,-64
1523078804104980,-19,9,14,8,-22,28,22,-40
1523078804104980,-14,1,-3,-8,11,-49,-31,25
1523078804125998,24,0,-3,3,5,11,-2,-56
1523078804125998,12,-34,-8,-4,7,-1,29,89
1523078804128002,12,49,18,-8,-2,32,5,5
1523078804128002,-19,23,20,6,-6,-4,1,-8
1523078804140059,-11,-66,-67,-5,-8,-16,4,12
1523078804140059,-2,36,-13,-5,-7,4,9,23
1523078804149010,-42,20,46,7,-1,-7,-17,-34
1523078804149010,2,-25,1,4,-1,-9,-8,-62
1523078804164057,-22,14,-10,5,7,-5,-17,-5
1523078804164057,1,-17,-7,-2,-11,-3,8,11
1523078804165021,-11,7,-31,-8,3,0,-3,-25
1523078804165021,-4,-6,12,-5,3,1,6,3
1523078804186090,2,3,10,-3,-6,-4,-12,-14
1523078804186090,-3,-22,4,0,3,52,37,76
1523078804188044,1,6,2,7,13,-26,6,24
1523078804188044,-17,0,1,-6,-15,-57,-73,-13
1523078804208107,-37,-14,0,-2,-2,19,-24,-93
1523078804208107,30,6,5,-3,-17,11,14,-15
1523078804215056,7,-1,14,12,25,6,9,71
1523078804215056,17,0,-11,-4,1,6,17,2
1523078804232107,-12,-4,-16,-2,-1,-24,-8,-1
1523078804232107,-9,12,24,-13,-8,7,-7,-8
1523078804237079,7,-62,-2,17,12,25,9,-24
1523078804237079,-9,24,2,17,12,16,28,13
1523078804262091,15,-23,8,-3,1,24,10,25
1523078804262091,-30,12,-3,-2,-14,-92,-61,-70
1523078804263092,-10,-18,-17,-20,-17,1,-10,-7
1523078804263092,-32,3,-2,-10,-9,-4,-5,16
1523078804264093,56,99,38,-7,17,39,29,22
1523078804264093,-25,-114,-71,29,-3,-57,-47,-90
1523078804276102,-18,76,7,-4,-14,-7,-6,14
1523078804276102,25,1,-7,0,17,26,0,-11
1523078804290167,1,17,4,-5,-4,3,7,17
1523078804290167,16,20,16,-10,0,13,17,52
1523078804331139,4,-20,-9,-4,-8,-28,-11,7
1523078804331139,-21,-22,-5,-1,-3,2,18,-25
1523078804331139,37,10,-19,-1,3,7,21,106
1523078804331139,0,0,24,13,-2,-31,-21,-69
1523078804336198,-23,-18,-27,-3,-7,39,-7,-61
1523078804336198,8,11,7,-12,1,-35,-13,30
1523078804344150,-5,-13,2,-4,-6,-7,5,2
1523078804344150,-12,-18,3,0,8,59,25,44
1523078804344150,-19,-17,10,11,0,-29,-19,14
1523078804344150,25,35,12,-11,4,48,20,14
1523078804350157,1,38,2,-4,2,6,7,19
1523078804350157,-7,-22,4,-1,-3,18,13,5
1523078804365219,-24,-8,-7,-5,2,-39,-8,45
1523078804365219,-7,-14,0,-7,-5,-3,-17,-98
1523078804374171,-18,8,-12,-7,-6,-39,-23,48
1523078804374171,61,17,4,7,-3,-10,3,34
1523078804380183,-14,5,2,8,7,37,9,5
1523078804380183,10,5,3,0,-4,-28,3,-17
1523078804389181,2,1,5,-3,-1,32,12,33
1523078804389181,19,94,5,-30,8,38,31,19
1523078804403190,-56,-76,-36,41,-2,-29,-21,-77
1523078804403190,42,67,40,6,-9,-15,-16,27
1523078804411196,-8,24,1,0,3,6,12,10
1523078804411196,-3,0,-2,0,-1,-7,-9,-14
1523078804433212,27,35,8,-17,-1,28,5,-9
1523078804433212,-18,14,-18,-16,17,64,53,99
1523078804435211,-15,-61,-18,8,-18,-83,-61,-81
1523078804435211,-3,17,18,8,-4,-29,-8,-2
1523078804440217,3,-14,-8,-10,-20,-46,-31,-28
1523078804440217,-32,-10,0,0,3,10,7,19
1523078804465233,31,56,4,-15,6,34,26,51
1523078804465233,6,8,-3,8,22,13,19,-11
1523078804466237,-6,9,0,-11,-9,-24,-27,-30
1523078804466237,-6,-55,-23,-9,-13,-14,-7,19
1523078804477243,17,-5,5,4,4,26,26,9
1523078804477243,-21,-15,0,11,2,-9,-6,-39
